{
   "MpAlias":"r.wc.super.startingpackage.1_0_0",
   "WorldInstanceAlias":"dw1__1",
   "WorldInstanceIsReal":false,
   "FromGNodeAlias":"dw1",
   "ToGNodeAlias":"dw1.super1",
   "ComponentMpAlias":"Component.0_1_0-0483a0f.yml",
   "ComponentAttributeClassMpAlias":"ComponentAttributeClass.0_1_0-0483a0f.yml",
   "GNodeMpAlias":"GNode.0_1_0-0483a0f.yml",
   "WorldInstanceMpAlias":"WorldInstance.0_2_0-283b4f9",
   "GridRunClassMpAlias":"GridRunClass.0_1_0-0483a0f.yml",
   "GrcGNodeMpAlias":"GrcGNode.0_1_0-0483a0f.yml",
   "SupervisorContainerMpAlias":"SupervisorContainer.0_1_0-0483a0f.yml",
   "GNodeInstanceMpAlias":"GNodeInstance.0_1_0-0483a0f.yml",
   "ComponentAttributeClasses":[
      {
         "ComponentAttributeClassId":"d405efbb-f516-4721-8453-7fc5991526ad",
         "ModelNumber":"G1000D",
         "RatedPowerInjectedVa":4000000,
         "MaxRampUpFractionPerSecond":0.03,
         "ComponentTypeValue":"Diesel",
         "ComponentManufacturerValue":"Generac"
      },
      {
         "ComponentAttributeClassId":"2b8814c5-6737-4186-a50b-9f1860650a3c",
         "ModelNumber":"EA2531D",
         "RatedPowerInjectedVa":300000,
         "MaxRampUpFractionPerSecond":0.07,
         "MaxRampDownFractionPerSecond":0.14,
         "ComponentTypeValue":"Diesel",
         "ComponentManufacturerValue":"Eaton"
      },
      {
         "ComponentAttributeClassId":"5305709e-3fc9-4065-828f-605c352d1f39",
         "ModelNumber":"WP5000",
         "RatedPowerInjectedVa":1500000,
         "ComponentTypeValue":"Wind",
         "ComponentManufacturerValue":"Windustries Power"
      },
      {
         "ComponentAttributeClassId":"15b11884-1572-4480-9bbd-18f37bb5942a",
         "ModelNumber":"A54",
         "RatedPowerInjectedVa":100000,
         "PvTotalAreaM2":100.0,
         "RatedMaxInverterEfficiency":0.71,
         "ComponentTypeValue":"Solar",
         "ComponentManufacturerValue":"Nordic Solar"
      },
      {
         "ComponentAttributeClassId":"7c29c897-add3-44e7-a137-f48787cb72e0",
         "ModelNumber":"Ray5",
         "RatedPowerInjectedVa":40000,
         "ComponentTypeValue":"Solar",
         "ComponentManufacturerValue":"Tesla"
      },
      {
         "ComponentAttributeClassId":"f9e3aef4-0162-45b6-9eb7-2c52a9963ab8",
         "ModelNumber":"ETS308",
         "RatedPowerWithdrawnVa":3000,
         "ComponentTypeValue":"StorageHeater",
         "ComponentManufacturerValue":"Stiebel Eltron"
      },
      {
         "ComponentAttributeClassId":"814f2c7d-abf7-4ac7-93ec-687ae5b904cf",
         "ModelNumber":"ETS208",
         "RatedPowerWithdrawnVa":2000,
         "ComponentTypeValue":"StorageHeater",
         "ComponentManufacturerValue":"Stiebel Eltron"
      },
      {
         "ComponentAttributeClassId":"95bdce73-20f7-415c-9207-2184258020c7",
         "ModelNumber":"5100",
         "RatedPowerWithdrawnVa":42000,
         "ComponentTypeValue":"StorageHeater",
         "ComponentManufacturerValue":"Steffes"
      },
      {
         "ComponentAttributeClassId":"415d2c4b-2b95-4a4f-9354-d208cb56fd83",
         "ModelNumber":"PowerFoilD",
         "RatedPowerWithdrawnVa":300,
         "ComponentTypeValue":"Fan",
         "ComponentManufacturerValue":"BigAssFans"
      },
      {
         "ComponentAttributeClassId":"f9c751ed-4a03-4011-b2c4-bdce2f78ab4e",
         "ModelNumber":"SinamicsG120-D",
         "RatedPowerWithdrawnVa":37000,
         "ComponentTypeValue":"VariableSpeedMotor",
         "ComponentManufacturerValue":"Siemens"
      },
      {
         "ComponentAttributeClassId":"eaae470a-9203-40af-98cf-37ec551a33d6",
         "ModelNumber":"SinamicsK400-D",
         "RatedPowerWithdrawnVa":350000,
         "ComponentTypeValue":"VariableSpeedMotor",
         "ComponentManufacturerValue":"Siemens"
      },
      {
         "ComponentAttributeClassId":"0db7876a-d87b-453e-9a0f-f504405c83ac",
         "ModelNumber":"teevee",
         "RatedPowerWithdrawnVa":100,
         "ComponentTypeValue":"OtherLoad",
         "ComponentManufacturerValue":"Brawndo"
      },
      {
         "ComponentAttributeClassId":"a48c945b-9453-4163-9369-8e7571958c25",
         "ModelNumber":"ASQ",
         "RatedPowerWithdrawnVa":25000,
         "ComponentTypeValue":"VariableSpeedMotor",
         "ComponentManufacturerValue":"NAF"
      },
      {
         "ComponentAttributeClassId":"43b2a96b-8442-48de-8580-bcdaba8ecc76",
         "ModelNumber":"",
         "RatedAmpacityRmsAmps":0.05,
         "SeriesReactanceOhms":0.1,
         "ComponentTypeValue":"Cable",
         "ComponentManufacturerValue":"SouthWire"
      },
      {
         "ComponentAttributeClassId":"7bc985c5-27f3-4262-86ad-e05e781570d8",
         "ModelNumber":"",
         "RatedAmpacityRmsAmps":0.08,
         "SeriesReactanceOhms":0.12,
         "ComponentTypeValue":"Cable",
         "ComponentManufacturerValue":"SouthWire"
      },
      {
         "ComponentAttributeClassId":"bf9cf325-d4fa-44f4-8315-575d4fa1ce28",
         "ModelNumber":"Nano",
         "ComponentTypeValue":"InfinitesimalConnector",
         "ComponentManufacturerValue":"Gridworks"
      }
   ],
   "Components":[
      {
         "ComponentId":"a76412d3-4d78-47f2-8778-b228a50a9354",
         "DisplayName":"Dev Component connecting ISO NE to Belfast Substation ",
         "ComponentAttributeClassId":"7bc985c5-27f3-4262-86ad-e05e781570d8"
      },
      {
         "ComponentId":"64978d6e-659b-43e3-9399-8c412bdc92e2",
         "DisplayName":"Dev Cable component from Belfast Substation toFish Farm",
         "ComponentAttributeClassId":"7bc985c5-27f3-4262-86ad-e05e781570d8"
      },
      {
         "ComponentId":"f0e91a92-ccda-4814-8bd7-58bf4b7f9d91",
         "DisplayName":"Dev Cable component from ff to ff.bus1",
         "ComponentAttributeClassId":"43b2a96b-8442-48de-8580-bcdaba8ecc76"
      },
      {
         "ComponentId":"cb0b57de-1fea-47e6-9618-9ba4d0e28ef4",
         "DisplayName":"Dev Cable component from ff.bus1 to ff.bus2",
         "ComponentAttributeClassId":"7bc985c5-27f3-4262-86ad-e05e781570d8"
      },
      {
         "ComponentId":"7314f3ad-16c0-4089-ac3f-d18c03f7a8e8",
         "DisplayName":"Dev Infinitesimal cable component for AtomicTNode ff.bus1.bus2.diesel",
         "ComponentAttributeClassId":"bf9cf325-d4fa-44f4-8315-575d4fa1ce28"
      },
      {
         "ComponentId":"e15a947e-97e9-4493-b0be-22637a778c96",
         "DisplayName":"Dev Diesel Generator Component currently assigned to ff.bus1.bus2.diesel.ta TerminalAsset",
         "ComponentAttributeClassId":"2b8814c5-6737-4186-a50b-9f1860650a3c"
      },
      {
         "ComponentId":"9b54c295-9397-4b35-8c58-1d96850db245",
         "DisplayName":"Dev Cable component  between topology nodes ff.bus1.bus2 and ff.tank1.tank2",
         "ComponentAttributeClassId":"43b2a96b-8442-48de-8580-bcdaba8ecc76"
      },
      {
         "ComponentId":"bf97dbd7-a3e9-497d-a71f-e494b8369906",
         "DisplayName":"Dev Cable component between topology nodes ff.bus1 and ff.tank1.tank2",
         "ComponentAttributeClassId":"43b2a96b-8442-48de-8580-bcdaba8ecc76"
      },
      {
         "ComponentId":"bc96b253-ef5c-41f5-8d27-09bf3b9f1245",
         "DisplayName":"Dev Infinitesimal cable for AtomicTNode ff.bus1.fan",
         "ComponentAttributeClassId":"bf9cf325-d4fa-44f4-8315-575d4fa1ce28"
      },
      {
         "ComponentId":"2b9c456b-479e-47ca-8faf-d66cf477b029",
         "DisplayName":"Dev PV Fan Component currently associated to ff.bus1.fan.ta",
         "ComponentAttributeClassId":"415d2c4b-2b95-4a4f-9354-d208cb56fd83"
      },
      {
         "ComponentId":"4194f4f2-7198-412b-bf95-277300d9f780",
         "DisplayName":"Dev Infinitesimal cable component for atomicTnode ff.bus1.bus2.pv",
         "ComponentAttributeClassId":"bf9cf325-d4fa-44f4-8315-575d4fa1ce28"
      },
      {
         "ComponentId":"defab4b6-5baf-4d37-971e-a417a74dfa69",
         "DisplayName":"Dev PV as a component associated to ff.bus1.pv.ta",
         "ComponentAttributeClassId":"15b11884-1572-4480-9bbd-18f37bb5942a"
      },
      {
         "ComponentId":"e30b92c2-5c8e-48ac-b454-dc38cb074dcc",
         "DisplayName":"Dev Infinitesimal cable for AtomicTNode ff.bus1.tinysolar",
         "ComponentAttributeClassId":"bf9cf325-d4fa-44f4-8315-575d4fa1ce28"
      },
      {
         "ComponentId":"8eea4ee4-c485-439c-9c20-0cada101b5bd",
         "DisplayName":"Dev PV as a component associated to ff.bus1.tinysolar.ta",
         "ComponentAttributeClassId":"7c29c897-add3-44e7-a137-f48787cb72e0"
      },
      {
         "ComponentId":"5fc1853d-7459-4fa4-ace6-c5b513bd7983",
         "DisplayName":"Dev Infintesimal cable for AtomicTNode ff.bus1.tv",
         "ComponentAttributeClassId":"bf9cf325-d4fa-44f4-8315-575d4fa1ce28"
      },
      {
         "ComponentId":"660eff0a-f712-4ab7-a792-5c9f0863e501",
         "DisplayName":"Dev PV television as a component",
         "ComponentAttributeClassId":"0db7876a-d87b-453e-9a0f-f504405c83ac"
      },
      {
         "ComponentId":"eb575558-ecae-4ede-8e72-f338ccebbb13",
         "DisplayName":"Dev Cable component between topology nodes ff and ff.tank1",
         "ComponentAttributeClassId":"7bc985c5-27f3-4262-86ad-e05e781570d8"
      },
      {
         "ComponentId":"132e499b-98ba-48b4-af83-5e548d4c02fa",
         "DisplayName":"Dev Infinitesimal cable for AtomicTNode  ff.tank1.b1",
         "ComponentAttributeClassId":"bf9cf325-d4fa-44f4-8315-575d4fa1ce28"
      },
      {
         "ComponentId":"c96a7194-bd92-468d-a7e7-35e2fe401a40",
         "DisplayName":"Dev Tank 1 Blower 1 as component",
         "ComponentAttributeClassId":"a48c945b-9453-4163-9369-8e7571958c25"
      },
      {
         "ComponentId":"d1b1f7f7-6a75-4651-8e38-07d3ed4314b2",
         "DisplayName":"Dev Infinitesimal cable for AtomicTNode ff.tank1.b2",
         "ComponentAttributeClassId":"bf9cf325-d4fa-44f4-8315-575d4fa1ce28"
      },
      {
         "ComponentId":"314f35ba-de0c-49fa-bed6-39a8105dedb0",
         "DisplayName":"Dev Tank 1 Blower 2 as component",
         "ComponentAttributeClassId":"a48c945b-9453-4163-9369-8e7571958c25"
      },
      {
         "ComponentId":"2a35bdb4-53fe-4916-9046-42a0d80e3f9d",
         "DisplayName":"Dev Infinitesimal cable for AtomicTNode ff.tank1.b3",
         "ComponentAttributeClassId":"bf9cf325-d4fa-44f4-8315-575d4fa1ce28"
      },
      {
         "ComponentId":"e3851868-767c-4169-afd3-889e16f1f237",
         "DisplayName":"Dev Tank 1 Blower 3 as component ",
         "ComponentAttributeClassId":"a48c945b-9453-4163-9369-8e7571958c25"
      },
      {
         "ComponentId":"e88a93f0-1e0c-493a-a877-6156ddb36abd",
         "DisplayName":"Dev Infinitesimal cable for AtomicTNode ff.tank1.b4",
         "ComponentAttributeClassId":"bf9cf325-d4fa-44f4-8315-575d4fa1ce28"
      },
      {
         "ComponentId":"88e0b7cc-9649-4a52-a7f4-5b331104dbd9",
         "DisplayName":"Dev Tank 1 Blower 4 as component",
         "ComponentAttributeClassId":"a48c945b-9453-4163-9369-8e7571958c25"
      },
      {
         "ComponentId":"8dd32eb4-9ddd-4bbc-8b2e-1b909cb1f5aa",
         "DisplayName":"Dev Infinitesimal cable for AtomicTNode ff.tank1.bigpump",
         "ComponentAttributeClassId":"bf9cf325-d4fa-44f4-8315-575d4fa1ce28"
      },
      {
         "ComponentId":"df62c9e6-b2fb-4c9d-9fbb-430cbbd789cf",
         "DisplayName":"Dev The Big Pump component currently associated to ff.tank1.bigpump.ta",
         "ComponentAttributeClassId":"eaae470a-9203-40af-98cf-37ec551a33d6"
      },
      {
         "ComponentId":"0e3170f2-bd10-4974-938a-84ff816c945b",
         "DisplayName":"Dev Infinitesimal cable for AtomicTNode ff.tank1.fan",
         "ComponentAttributeClassId":"bf9cf325-d4fa-44f4-8315-575d4fa1ce28"
      },
      {
         "ComponentId":"c703ecb4-de00-48ad-a634-a38759903fbc",
         "DisplayName":"Dev Fan component currently associated with ff.tank1.fan.ta",
         "ComponentAttributeClassId":"415d2c4b-2b95-4a4f-9354-d208cb56fd83"
      },
      {
         "ComponentId":"8dccd1f3-6531-4248-a750-e777f4977d94",
         "DisplayName":"Dev Infinitesimal cable for AtomicTNode ff.tank1.p1",
         "ComponentAttributeClassId":"bf9cf325-d4fa-44f4-8315-575d4fa1ce28"
      },
      {
         "ComponentId":"5fd7c38c-6243-46c7-ab86-3593df1049bf",
         "DisplayName":"Dev Pump component currently installed as Tank 1 Pump 1",
         "ComponentAttributeClassId":"f9c751ed-4a03-4011-b2c4-bdce2f78ab4e"
      },
      {
         "ComponentId":"ecb04027-7b93-4d4a-99d1-94e9f9e0b095",
         "DisplayName":"Dev Infinitesimal cable for AtomicTNode ff.tank1.p2",
         "ComponentAttributeClassId":"bf9cf325-d4fa-44f4-8315-575d4fa1ce28"
      },
      {
         "ComponentId":"b23113b1-90f0-4755-9474-e8bc7fdf6fdc",
         "DisplayName":"Dev Pump  Component currently installed as Tank 1 Pump 2",
         "ComponentAttributeClassId":"f9c751ed-4a03-4011-b2c4-bdce2f78ab4e"
      },
      {
         "ComponentId":"a97c271b-4421-4e8d-ad0a-6683a90d4fb9",
         "DisplayName":"Dev Cable component between topology nodes ff.tank1 and ff.tank1.tank2",
         "ComponentAttributeClassId":"43b2a96b-8442-48de-8580-bcdaba8ecc76"
      },
      {
         "ComponentId":"e44a7c68-aaf5-4b6c-9c71-7fdacf9626f1",
         "DisplayName":"Dev Infinitesimal cable for AtomicTNode ff.tank1.tank2.b1",
         "ComponentAttributeClassId":"bf9cf325-d4fa-44f4-8315-575d4fa1ce28"
      },
      {
         "ComponentId":"090eee49-5485-417d-bd10-12641df6835f",
         "DisplayName":"Dev Blower component currently installed as Tank 2 Blower 1",
         "ComponentAttributeClassId":"a48c945b-9453-4163-9369-8e7571958c25"
      },
      {
         "ComponentId":"13c4c358-c99d-4720-9ef5-207bce981476",
         "DisplayName":"Dev Infinitesimal cable for AtomicTNode ff.tank1.tank2.b2",
         "ComponentAttributeClassId":"bf9cf325-d4fa-44f4-8315-575d4fa1ce28"
      },
      {
         "ComponentId":"87093c82-4e69-460a-99d7-3e9c3270b742",
         "DisplayName":"Dev Blower component currently installed as  Tank 2 Blower 2",
         "ComponentAttributeClassId":"a48c945b-9453-4163-9369-8e7571958c25"
      },
      {
         "ComponentId":"d91dd053-fc42-4f6e-b8d5-11e90990e98d",
         "DisplayName":"Dev Infinitesimal cable for AtomicTNode ff.tank1.tank2.b3",
         "ComponentAttributeClassId":"bf9cf325-d4fa-44f4-8315-575d4fa1ce28"
      },
      {
         "ComponentId":"28e838d1-476d-4be9-a765-db7e9eafb795",
         "DisplayName":"Dev Blower component currently installed as  Tank 2 Blower 3",
         "ComponentAttributeClassId":"a48c945b-9453-4163-9369-8e7571958c25"
      },
      {
         "ComponentId":"bf92627b-f810-4080-b562-8d87eb2daa27",
         "DisplayName":"Dev Infinitesimal cable for AtomicTNode ff.tank1.tank2.b4",
         "ComponentAttributeClassId":"bf9cf325-d4fa-44f4-8315-575d4fa1ce28"
      },
      {
         "ComponentId":"88b0e935-f4ba-4124-95ca-f4047541cb6a",
         "DisplayName":"Dev Blower component currently installed as  Tank 2 Blower 4",
         "ComponentAttributeClassId":"a48c945b-9453-4163-9369-8e7571958c25"
      },
      {
         "ComponentId":"17f36373-2126-48b1-8967-8612c40adc29",
         "DisplayName":"Dev Infinitesimal cable for AtomicTNode ff.tank1.tank2.p1",
         "ComponentAttributeClassId":"bf9cf325-d4fa-44f4-8315-575d4fa1ce28"
      },
      {
         "ComponentId":"7ca43836-9676-418e-9dcb-2c08de0863ac",
         "DisplayName":"Dev Pump component currently installed as Tank 2 Pump 1",
         "ComponentAttributeClassId":"f9c751ed-4a03-4011-b2c4-bdce2f78ab4e"
      },
      {
         "ComponentId":"fe3461a7-8ca1-45a2-9928-372686cb5686",
         "DisplayName":"Dev Infinitesimal cable for AtomicTNode ff.tank1.tank2.p2",
         "ComponentAttributeClassId":"bf9cf325-d4fa-44f4-8315-575d4fa1ce28"
      },
      {
         "ComponentId":"1fd57898-e145-48bb-8299-695fdb30cc5a",
         "DisplayName":"Dev Blower component currently installed as  Tank 2 Pump 2",
         "ComponentAttributeClassId":"f9c751ed-4a03-4011-b2c4-bdce2f78ab4e"
      },
      {
         "ComponentId":"253eb8dd-ffcc-433a-ad55-97eb73c69cdf",
         "DisplayName":"Dev Infinitesimal cable for AtomicTNode cncrd.daisy.1",
         "ComponentAttributeClassId":"bf9cf325-d4fa-44f4-8315-575d4fa1ce28"
      },
      {
         "ComponentId":"7e51d9ce-d998-4275-aab4-870d96feed2a",
         "DisplayName":"Dev ETS Furnace Component currently installed at sw1.ne.cncrd.daisy.1.ta",
         "ComponentAttributeClassId":"95bdce73-20f7-415c-9207-2184258020c7"
      },
      {
         "ComponentId":"c79ed32a-5efa-49d2-860d-c7abc715d2c2",
         "DisplayName":"Dev Infinitesimal cable for AtomicTNode cncrd.daisy.2",
         "ComponentAttributeClassId":"bf9cf325-d4fa-44f4-8315-575d4fa1ce28"
      },
      {
         "ComponentId":"0f1ff1d7-85f0-4504-9780-d9ca53e14ff2",
         "DisplayName":"Dev Daisy ETS room heater as component",
         "ComponentAttributeClassId":"f9e3aef4-0162-45b6-9eb7-2c52a9963ab8"
      },
      {
         "ComponentId":"2015fd4f-27f5-423d-896c-7b437c3060a2",
         "DisplayName":"Dev Infinitesimal cable for AtomicTNode cncrd.elm.1",
         "ComponentAttributeClassId":"bf9cf325-d4fa-44f4-8315-575d4fa1ce28"
      },
      {
         "ComponentId":"d06e0431-3373-4065-a35d-db5f47bc14e3",
         "DisplayName":"Dev Elm ETS Furnace as component",
         "ComponentAttributeClassId":"95bdce73-20f7-415c-9207-2184258020c7"
      },
      {
         "ComponentId":"b33b8e18-605a-4697-83cc-963ab2dde82d",
         "DisplayName":"Dev Infinitesimal cable for AtomicTNode cncrd.rose.1",
         "ComponentAttributeClassId":"bf9cf325-d4fa-44f4-8315-575d4fa1ce28"
      },
      {
         "ComponentId":"78ea1d5c-b0bd-41ea-bd61-5a88b124e9cb",
         "DisplayName":"Dev Rose ETS Furnace as component",
         "ComponentAttributeClassId":"95bdce73-20f7-415c-9207-2184258020c7"
      }
   ],
   "GNodes":[
      {
         "GNodeId":"c1c64bbb-d4e4-4c2f-9df7-9e469057dc3f",
         "Alias":"dgwps",
         "ElectricallyConnectsAndDisconnects":false,
         "DisplayName":"Dev Gridworks Platform Services",
         "GNodeStatusValue":"Pending",
         "PrimaryGNodeRoleAlias":"ServiceCoordinator"
      },
      {
         "GNodeId":"2fb83442-3244-4799-a7e1-1d8a91b8b8f1",
         "Alias":"dgwps.gnr",
         "ElectricallyConnectsAndDisconnects":false,
         "DisplayName":"Dev GNode Registry",
         "GNodeStatusValue":"Pending",
         "PrimaryGNodeRoleAlias":"Gnr"
      },
      {
         "GNodeId":"ccb69cf9-2e94-4921-be13-d8d4820cc392",
         "Alias":"dgwps.wir",
         "ElectricallyConnectsAndDisconnects":false,
         "DisplayName":"Dev World Instance Registry",
         "GNodeStatusValue":"Pending",
         "PrimaryGNodeRoleAlias":"Wir"
      },
      {
         "GNodeId":"27f6244e-1ac0-4d46-8bbb-da3b7b522767",
         "Alias":"dgwps.cr",
         "ElectricallyConnectsAndDisconnects":false,
         "DisplayName":"Dev Component Registry",
         "GNodeStatusValue":"Pending",
         "PrimaryGNodeRoleAlias":"ComponentRegistry"
      },
      {
         "GNodeId":"41aaa43b-6f41-4136-90bb-3df41182b425",
         "Alias":"dgwps.mpr",
         "ElectricallyConnectsAndDisconnects":false,
         "DisplayName":"Dev Message Protocol Registry",
         "GNodeStatusValue":"Pending",
         "PrimaryGNodeRoleAlias":"Mpr"
      },
      {
         "GNodeId":"0da4bca2-a3b0-47a4-bee5-1535bbe5d18f",
         "Alias":"dw1",
         "ElectricallyConnectsAndDisconnects":false,
         "DisplayName":"Dev World One",
         "GNodeStatusValue":"Active",
         "PrimaryGNodeRoleAlias":"WorldCoordinator"
      },
      {
         "GNodeId":"5d1f6b52-70c8-4435-9b6e-03286b4ca334",
         "Alias":"dw1.ground",
         "ElectricallyConnectsAndDisconnects":false,
         "DisplayName":"Electrical Ground",
         "GNodeStatusValue":"Active",
         "PrimaryGNodeRoleAlias":"Ground"
      },
      {
         "GNodeId":"3d6c9931-7be0-4187-97b8-b45cd72b0da3",
         "Alias":"dw1.ne",
         "ElectricallyConnectsAndDisconnects":false,
         "DisplayName":"ISO NE",
         "GNodeStatusValue":"Active",
         "PrimaryGNodeRoleAlias":"GridRoot"
      },
      {
         "GNodeId":"f445117b-2c4c-47b2-ae99-57eb75021b08",
         "Alias":"dw1.ne.bf1",
         "ElectricallyConnectsAndDisconnects":false,
         "ToBusGNodeAlias":"dw1.ne.bf1",
         "DisplayName":"Belfast Substation 1",
         "GNodeStatusValue":"Active",
         "PrimaryComponentId":"a76412d3-4d78-47f2-8778-b228a50a9354",
         "PrimaryGNodeRoleAlias":"Ctn"
      },
      {
         "GNodeId":"d6c4f649-a30f-4647-a7b1-0cd9d5f54a61",
         "Alias":"dw1.ne.bf1.ff",
         "BusRatedVoltageVrms":13800,
         "ElectricallyConnectsAndDisconnects":true,
         "FromBusGNodeAlias":"dw1.ne.bf1",
         "ToBusGNodeAlias":"dw1.ne.bf1.ff",
         "DisplayName":"Simulated Fish Farm",
         "GNodeStatusValue":"Active",
         "PrimaryComponentId":"64978d6e-659b-43e3-9399-8c412bdc92e2",
         "PrimaryGNodeRoleAlias":"GridRoot"
      },
      {
         "GNodeId":"dbff49ca-fabe-45a9-b810-c49a50daa7bf",
         "Alias":"dw1.ne.bf1.ff.blowers",
         "ElectricallyConnectsAndDisconnects":false,
         "DisplayName":"Sim Fish Farm Blowers",
         "GNodeStatusValue":"Active",
         "PrimaryGNodeRoleAlias":"AggregatedTNode"
      },
      {
         "GNodeId":"97449d86-d690-40c9-86e4-296ac7360ee6",
         "Alias":"dw1.ne.bf1.ff.bus1",
         "BusRatedVoltageVrms":13800,
         "ElectricallyConnectsAndDisconnects":false,
         "FromBusGNodeAlias":"dw1.ne.bf1.ff",
         "ToBusGNodeAlias":"dw1.ne.bf1.ff.bus1",
         "DisplayName":"PV Bus",
         "GNodeStatusValue":"Active",
         "PrimaryComponentId":"f0e91a92-ccda-4814-8bd7-58bf4b7f9d91",
         "PrimaryGNodeRoleAlias":"Ctn"
      },
      {
         "GNodeId":"448164b0-5095-4704-a97e-6d196895f4e7",
         "Alias":"dw1.ne.bf1.ff.bus1.bus2",
         "BusRatedVoltageVrms":13800,
         "ElectricallyConnectsAndDisconnects":false,
         "FromBusGNodeAlias":"dw1.ne.bf1.ff.bus1",
         "ToBusGNodeAlias":"dw1.ne.bf1.ff.bus1.bus2",
         "DisplayName":"Diesel Bus",
         "GNodeStatusValue":"Active",
         "PrimaryComponentId":"cb0b57de-1fea-47e6-9618-9ba4d0e28ef4",
         "PrimaryGNodeRoleAlias":"Ctn"
      },
      {
         "GNodeId":"952103c8-4455-4c4c-9c06-f3d7bbbd2130",
         "Alias":"dw1.ne.bf1.ff.bus1.bus2.diesel",
         "ElectricallyConnectsAndDisconnects":false,
         "FromBusGNodeAlias":"dw1.ne.bf1.ff.bus1.bus2",
         "ToBusGNodeAlias":"dw1.ne.bf1.ff.bus1.bus2.diesel.ta",
         "DisplayName":"Diesel Gen",
         "GNodeStatusValue":"Active",
         "PrimaryComponentId":"7314f3ad-16c0-4089-ac3f-d18c03f7a8e8",
         "PrimaryGNodeRoleAlias":"AtomicTNode"
      },
      {
         "GNodeId":"fca0a8c3-1289-4c8a-9500-5491f2810a66",
         "Alias":"dw1.ne.bf1.ff.bus1.bus2.diesel.ta",
         "ElectricallyConnectsAndDisconnects":true,
         "FromBusGNodeAlias":"dw1.ne.bf1.ff.bus1.bus2.diesel",
         "ToBusGNodeAlias":"dw1.ground",
         "DisplayName":"Diesel Gen ",
         "GNodeStatusValue":"Active",
         "PrimaryComponentId":"e15a947e-97e9-4493-b0be-22637a778c96",
         "PrimaryGNodeRoleAlias":"TerminalAsset"
      },
      {
         "GNodeId":"37456d95-25d2-4bf8-9234-edae9cbe5df6",
         "Alias":"dw1.ne.bf1.ff.bus1.bus2.edge2",
         "BusRatedVoltageVrms":13800,
         "ElectricallyConnectsAndDisconnects":false,
         "FromBusGNodeAlias":"dw1.ne.bf1.ff.bus1.bus2",
         "ToBusGNodeAlias":"dw1.ne.bf1.ff.tank1.tank2",
         "DisplayName":"FF Edge 2",
         "GNodeStatusValue":"Active",
         "PrimaryComponentId":"9b54c295-9397-4b35-8c58-1d96850db245",
         "PrimaryGNodeRoleAlias":"InterconnectionComponent"
      },
      {
         "GNodeId":"0276e014-c1c0-4b7d-9bf7-075ec67689e9",
         "Alias":"dw1.ne.bf1.ff.bus1.edge1",
         "BusRatedVoltageVrms":13800,
         "ElectricallyConnectsAndDisconnects":false,
         "FromBusGNodeAlias":"dw1.ne.bf1.ff.bus1",
         "ToBusGNodeAlias":"dw1.ne.bf1.ff.tank1.tank2",
         "DisplayName":"FF Edge 1",
         "GNodeStatusValue":"Active",
         "PrimaryComponentId":"bf97dbd7-a3e9-497d-a71f-e494b8369906",
         "PrimaryGNodeRoleAlias":"InterconnectionComponent"
      },
      {
         "GNodeId":"a9b52894-ca95-4245-9488-3b5ed1f6b13e",
         "Alias":"dw1.ne.bf1.ff.bus1.fan",
         "ElectricallyConnectsAndDisconnects":false,
         "FromBusGNodeAlias":"dw1.ne.bf1.ff.bus1",
         "ToBusGNodeAlias":"dw1.ne.bf1.ff.bus1.fan.ta",
         "DisplayName":"PV Fan",
         "GNodeStatusValue":"SimTempDeactivated",
         "PrimaryComponentId":"bc96b253-ef5c-41f5-8d27-09bf3b9f1245",
         "PrimaryGNodeRoleAlias":"TerminalSsNode"
      },
      {
         "GNodeId":"008848aa-8e65-4a5f-8ec9-bd500eae7276",
         "Alias":"dw1.ne.bf1.ff.bus1.fan.ta",
         "ElectricallyConnectsAndDisconnects":true,
         "FromBusGNodeAlias":"dw1.ne.bf1.ff.bus1.fan",
         "ToBusGNodeAlias":"dw1.ground",
         "DisplayName":"PV Fan",
         "GNodeStatusValue":"SimTempDeactivated",
         "PrimaryComponentId":"2b9c456b-479e-47ca-8faf-d66cf477b029",
         "PrimaryGNodeRoleAlias":"TerminalAsset"
      },
      {
         "GNodeId":"4fb61a1c-5b08-4344-bddf-dce75c3ac184",
         "Alias":"dw1.ne.bf1.ff.bus1.pv",
         "ElectricallyConnectsAndDisconnects":false,
         "FromBusGNodeAlias":"dw1.ne.bf1.ff.bus1",
         "ToBusGNodeAlias":"dw1.ne.bf1.ff.bus1.pv.ta",
         "DisplayName":"PV",
         "GNodeStatusValue":"Active",
         "PrimaryComponentId":"4194f4f2-7198-412b-bf95-277300d9f780",
         "PrimaryGNodeRoleAlias":"AtomicTNode"
      },
      {
         "GNodeId":"4f2ac5a5-68eb-46cf-8b8a-0b15c6643bfd",
         "Alias":"dw1.ne.bf1.ff.bus1.pv.ta",
         "ElectricallyConnectsAndDisconnects":true,
         "FromBusGNodeAlias":"dw1.ne.bf1.ff.bus1.pv",
         "ToBusGNodeAlias":"dw1.ground",
         "DisplayName":"PV",
         "GNodeStatusValue":"Active",
         "PrimaryComponentId":"defab4b6-5baf-4d37-971e-a417a74dfa69",
         "PrimaryGNodeRoleAlias":"TerminalAsset"
      },
      {
         "GNodeId":"7b0ee06f-2963-42e7-9cc6-955662b07762",
         "Alias":"dw1.ne.bf1.ff.bus1.tinysolar",
         "ElectricallyConnectsAndDisconnects":false,
         "FromBusGNodeAlias":"dw1.ne.bf1.ff.bus1",
         "ToBusGNodeAlias":"dw1.ne.bf1.ff.bus1.tinysolar.ta",
         "DisplayName":"Small PV",
         "GNodeStatusValue":"Active",
         "PrimaryComponentId":"e30b92c2-5c8e-48ac-b454-dc38cb074dcc",
         "PrimaryGNodeRoleAlias":"AtomicTNode"
      },
      {
         "GNodeId":"29318c64-3ad1-450f-9b89-9dbfc28375c5",
         "Alias":"dw1.ne.bf1.ff.bus1.tinysolar.ta",
         "ElectricallyConnectsAndDisconnects":true,
         "FromBusGNodeAlias":"dw1.ne.bf1.ff.bus1.tinysolar",
         "ToBusGNodeAlias":"dw1.ground",
         "DisplayName":"Small PV",
         "GNodeStatusValue":"Active",
         "PrimaryComponentId":"8eea4ee4-c485-439c-9c20-0cada101b5bd",
         "PrimaryGNodeRoleAlias":"TerminalAsset"
      },
      {
         "GNodeId":"39371192-b72f-4b9c-b9bd-623855100590",
         "Alias":"dw1.ne.bf1.ff.bus1.tv",
         "ElectricallyConnectsAndDisconnects":false,
         "FromBusGNodeAlias":"dw1.ne.bf1.ff.bus1",
         "ToBusGNodeAlias":"dw1.ne.bf1.ff.bus1.tv.ta",
         "DisplayName":"PV television",
         "GNodeStatusValue":"SimTempDeactivated",
         "PrimaryComponentId":"5fc1853d-7459-4fa4-ace6-c5b513bd7983",
         "PrimaryGNodeRoleAlias":"TerminalSSNode"
      },
      {
         "GNodeId":"8e92aec1-4ce0-4909-9218-95d0e77ff5f7",
         "Alias":"dw1.ne.bf1.ff.bus1.tv.ta",
         "ElectricallyConnectsAndDisconnects":true,
         "FromBusGNodeAlias":"dw1.ne.bf1.ff.bus1.tv",
         "ToBusGNodeAlias":"dw1.ground",
         "DisplayName":"PV television",
         "GNodeStatusValue":"SimTempDeactivated",
         "PrimaryComponentId":"660eff0a-f712-4ab7-a792-5c9f0863e501",
         "PrimaryGNodeRoleAlias":"TerminalAsset"
      },
      {
         "GNodeId":"86590435-d17f-4991-a535-20f77016d5d7",
         "Alias":"dw1.ne.bf1.ff.contract-coord",
         "ElectricallyConnectsAndDisconnects":false,
         "DisplayName":"SFF Coordinator",
         "GNodeStatusValue":"Active",
         "PrimaryGNodeRoleAlias":"ContractCoordinator"
      },
      {
         "GNodeId":"11599a2f-4bff-4c4f-8a47-fe28ced3d4aa",
         "Alias":"dw1.ne.bf1.ff.nm",
         "ElectricallyConnectsAndDisconnects":false,
         "DisplayName":"Microgrid Network Modeler",
         "GNodeStatusValue":"Active",
         "PrimaryGNodeRoleAlias":"NetworkModeler"
      },
      {
         "GNodeId":"f3cce4c9-1970-4cd2-b69c-b0b79db8a014",
         "Alias":"dw1.ne.bf1.ff.nm.ba",
         "ElectricallyConnectsAndDisconnects":false,
         "DisplayName":"Belfast Bus Aggregator",
         "GNodeStatusValue":"Active",
         "PrimaryGNodeRoleAlias":"BusAggregator"
      },
      {
         "GNodeId":"fc441a4f-1041-41d0-a84d-baca146f1ae6",
         "Alias":"dw1.ne.bf1.ff.pumps",
         "ElectricallyConnectsAndDisconnects":false,
         "DisplayName":"Sim Fish Farm Pumps",
         "GNodeStatusValue":"Active",
         "PrimaryGNodeRoleAlias":"AggregatedTNode"
      },
      {
         "GNodeId":"88ea647d-cee1-4f43-a881-8820f93ece4e",
         "Alias":"dw1.ne.bf1.ff.tank1",
         "BusRatedVoltageVrms":13800,
         "ElectricallyConnectsAndDisconnects":false,
         "FromBusGNodeAlias":"dw1.ne.bf1.ff",
         "ToBusGNodeAlias":"dw1.ne.bf1.ff.tank1",
         "DisplayName":"Sim room 1 NAF",
         "GNodeStatusValue":"Active",
         "PrimaryComponentId":"eb575558-ecae-4ede-8e72-f338ccebbb13",
         "PrimaryGNodeRoleAlias":"Ctn"
      },
      {
         "GNodeId":"666dc428-542c-4bd7-86e6-22da88a05646",
         "Alias":"dw1.ne.bf1.ff.tank1.b1",
         "ElectricallyConnectsAndDisconnects":false,
         "FromBusGNodeAlias":"dw1.ne.bf1.ff.tank1",
         "ToBusGNodeAlias":"dw1.ne.bf1.ff.tank1.b1.ta",
         "DisplayName":"Tank 1 Blower 1",
         "GNodeStatusValue":"Active",
         "PrimaryComponentId":"132e499b-98ba-48b4-af83-5e548d4c02fa",
         "PrimaryGNodeRoleAlias":"AtomicTNode"
      },
      {
         "GNodeId":"61b3699b-7a7b-4df0-86a9-53350a1614b2",
         "Alias":"dw1.ne.bf1.ff.tank1.b1.ta",
         "ElectricallyConnectsAndDisconnects":true,
         "FromBusGNodeAlias":"dw1.ne.bf1.ff.tank1.b1",
         "ToBusGNodeAlias":"dw1.ground",
         "DisplayName":"Tank 1 Blower 1",
         "GNodeStatusValue":"Active",
         "PrimaryComponentId":"c96a7194-bd92-468d-a7e7-35e2fe401a40",
         "PrimaryGNodeRoleAlias":"TerminalAsset"
      },
      {
         "GNodeId":"db1f5544-d001-47e0-9c3e-e432f2849b4f",
         "Alias":"dw1.ne.bf1.ff.tank1.b2",
         "ElectricallyConnectsAndDisconnects":false,
         "FromBusGNodeAlias":"dw1.ne.bf1.ff.tank1",
         "ToBusGNodeAlias":"dw1.ne.bf1.ff.tank1.b2.ta",
         "DisplayName":"Tank 1 Blower 2",
         "GNodeStatusValue":"Active",
         "PrimaryComponentId":"d1b1f7f7-6a75-4651-8e38-07d3ed4314b2",
         "PrimaryGNodeRoleAlias":"AtomicTNode"
      },
      {
         "GNodeId":"04705fa0-33e1-48c7-a6b5-56d3b8a1a526",
         "Alias":"dw1.ne.bf1.ff.tank1.b2.ta",
         "ElectricallyConnectsAndDisconnects":true,
         "FromBusGNodeAlias":"dw1.ne.bf1.ff.tank1.b2",
         "ToBusGNodeAlias":"dw1.ground",
         "DisplayName":"Tank 1 Blower 2",
         "GNodeStatusValue":"Active",
         "PrimaryComponentId":"314f35ba-de0c-49fa-bed6-39a8105dedb0",
         "PrimaryGNodeRoleAlias":"TerminalAsset"
      },
      {
         "GNodeId":"d5cdc407-d9bf-4f09-9989-ec4d89da57a5",
         "Alias":"dw1.ne.bf1.ff.tank1.b3",
         "ElectricallyConnectsAndDisconnects":false,
         "FromBusGNodeAlias":"dw1.ne.bf1.ff.tank1",
         "ToBusGNodeAlias":"dw1.ne.bf1.ff.tank1.b3.ta",
         "DisplayName":"Tank 1 Blower 3",
         "GNodeStatusValue":"Active",
         "PrimaryComponentId":"2a35bdb4-53fe-4916-9046-42a0d80e3f9d",
         "PrimaryGNodeRoleAlias":"AtomicTNode"
      },
      {
         "GNodeId":"e7d64566-06c3-4525-b6f7-3114129ee200",
         "Alias":"dw1.ne.bf1.ff.tank1.b3.ta",
         "ElectricallyConnectsAndDisconnects":true,
         "FromBusGNodeAlias":"dw1.ne.bf1.ff.tank1.b3",
         "ToBusGNodeAlias":"dw1.ground",
         "DisplayName":"Tank 1 Blower 3",
         "GNodeStatusValue":"Active",
         "PrimaryComponentId":"e3851868-767c-4169-afd3-889e16f1f237",
         "PrimaryGNodeRoleAlias":"TerminalAsset"
      },
      {
         "GNodeId":"d36a9b8a-e8ef-49e3-b81b-8cdad0d7386c",
         "Alias":"dw1.ne.bf1.ff.tank1.b4",
         "ElectricallyConnectsAndDisconnects":false,
         "FromBusGNodeAlias":"dw1.ne.bf1.ff.tank1",
         "ToBusGNodeAlias":"dw1.ne.bf1.ff.tank1.b4.ta",
         "DisplayName":"Tank 1 Blower 4",
         "GNodeStatusValue":"Active",
         "PrimaryComponentId":"e88a93f0-1e0c-493a-a877-6156ddb36abd",
         "PrimaryGNodeRoleAlias":"AtomicTNode"
      },
      {
         "GNodeId":"0ad0a6b8-9af7-45c3-82c6-e6ce953657fa",
         "Alias":"dw1.ne.bf1.ff.tank1.b4.ta",
         "ElectricallyConnectsAndDisconnects":true,
         "FromBusGNodeAlias":"dw1.ne.bf1.ff.tank1.b4",
         "ToBusGNodeAlias":"dw1.ground",
         "DisplayName":"Tank 1 Blower 4",
         "GNodeStatusValue":"Active",
         "PrimaryComponentId":"88e0b7cc-9649-4a52-a7f4-5b331104dbd9",
         "PrimaryGNodeRoleAlias":"TerminalAsset"
      },
      {
         "GNodeId":"c8fd5f79-9355-4e33-b6c3-327d6b9acccc",
         "Alias":"dw1.ne.bf1.ff.tank1.bigpump",
         "ElectricallyConnectsAndDisconnects":false,
         "FromBusGNodeAlias":"dw1.ne.bf1.ff.tank1",
         "ToBusGNodeAlias":"dw1.ne.bf1.ff.tank1.bigpump",
         "DisplayName":"Tank 1 Big Pump",
         "GNodeStatusValue":"Active",
         "PrimaryComponentId":"8dd32eb4-9ddd-4bbc-8b2e-1b909cb1f5aa",
         "PrimaryGNodeRoleAlias":"AtomicTNode"
      },
      {
         "GNodeId":"660c514b-9c39-41ba-9253-ca4da5fbf9fc",
         "Alias":"dw1.ne.bf1.ff.tank1.bigpump.ta",
         "ElectricallyConnectsAndDisconnects":true,
         "FromBusGNodeAlias":"dw1.ne.bf1.ff.tank1.bigpump",
         "ToBusGNodeAlias":"dw1.ground",
         "DisplayName":"Tank 1 Big Pump",
         "GNodeStatusValue":"Active",
         "PrimaryComponentId":"df62c9e6-b2fb-4c9d-9fbb-430cbbd789cf",
         "PrimaryGNodeRoleAlias":"TerminalAsset"
      },
      {
         "GNodeId":"b36c4877-5f74-483e-b6dc-3f0ab91a4e79",
         "Alias":"dw1.ne.bf1.ff.tank1.fan",
         "ElectricallyConnectsAndDisconnects":false,
         "FromBusGNodeAlias":"dw1.ne.bf1.ff.tank1",
         "ToBusGNodeAlias":"dw1.ne.bf1.ff.tank1.fan.ta",
         "DisplayName":"Tank 1 fan",
         "GNodeStatusValue":"SimTempDeactivated",
         "PrimaryComponentId":"0e3170f2-bd10-4974-938a-84ff816c945b",
         "PrimaryGNodeRoleAlias":"TerminalSsNode"
      },
      {
         "GNodeId":"97d76df4-34ac-41c2-aacd-eef348437cd1",
         "Alias":"dw1.ne.bf1.ff.tank1.fan.ta",
         "ElectricallyConnectsAndDisconnects":true,
         "FromBusGNodeAlias":"dw1.ne.bf1.ff.tank1.fan",
         "ToBusGNodeAlias":"dw1.ground",
         "DisplayName":"Tank 1 fan",
         "GNodeStatusValue":"SimTempDeactivated",
         "PrimaryComponentId":"c703ecb4-de00-48ad-a634-a38759903fbc",
         "PrimaryGNodeRoleAlias":"TerminalAsset"
      },
      {
         "GNodeId":"a46530c0-cce1-4c9b-b55f-946029d2e3c4",
         "Alias":"dw1.ne.bf1.ff.tank1.p1",
         "ElectricallyConnectsAndDisconnects":false,
         "FromBusGNodeAlias":"dw1.ne.bf1.ff.tank1",
         "ToBusGNodeAlias":"dw1.ne.bf1.ff.tank1.p1.ta",
         "DisplayName":"Tank 1 Pump 1",
         "GNodeStatusValue":"Active",
         "PrimaryComponentId":"8dccd1f3-6531-4248-a750-e777f4977d94",
         "PrimaryGNodeRoleAlias":"AtomicTNode"
      },
      {
         "GNodeId":"14ac9f9e-aa0a-439e-822f-1680038d150f",
         "Alias":"dw1.ne.bf1.ff.tank1.p1.ta",
         "ElectricallyConnectsAndDisconnects":true,
         "FromBusGNodeAlias":"dw1.ne.bf1.ff.tank1.p1",
         "ToBusGNodeAlias":"dw1.ground",
         "DisplayName":"Tank 1 Pump 1",
         "GNodeStatusValue":"Active",
         "PrimaryComponentId":"5fd7c38c-6243-46c7-ab86-3593df1049bf",
         "PrimaryGNodeRoleAlias":"TerminalAsset"
      },
      {
         "GNodeId":"28a68cd5-e2b2-4c04-af28-815b6bf41aec",
         "Alias":"dw1.ne.bf1.ff.tank1.p2",
         "ElectricallyConnectsAndDisconnects":false,
         "FromBusGNodeAlias":"dw1.ne.bf1.ff.tank1",
         "ToBusGNodeAlias":"dw1.ne.bf1.ff.tank1.p2.ta",
         "DisplayName":"Tank 1 Pump 2",
         "GNodeStatusValue":"Active",
         "PrimaryComponentId":"ecb04027-7b93-4d4a-99d1-94e9f9e0b095",
         "PrimaryGNodeRoleAlias":"AtomicTNode"
      },
      {
         "GNodeId":"a66a6ba5-726e-4f20-aa18-fad4efa43e91",
         "Alias":"dw1.ne.bf1.ff.tank1.p2.ta",
         "ElectricallyConnectsAndDisconnects":true,
         "FromBusGNodeAlias":"dw1.ne.bf1.ff.tank1.p2",
         "ToBusGNodeAlias":"dw1.ground",
         "DisplayName":"Tank 1 Pump 2",
         "GNodeStatusValue":"Active",
         "PrimaryComponentId":"b23113b1-90f0-4755-9474-e8bc7fdf6fdc",
         "PrimaryGNodeRoleAlias":"TerminalAsset"
      },
      {
         "GNodeId":"e7556ccf-3153-43e0-a2c0-1a552b2857d4",
         "Alias":"dw1.ne.bf1.ff.tank1.tank2",
         "BusRatedVoltageVrms":13800,
         "ElectricallyConnectsAndDisconnects":false,
         "FromBusGNodeAlias":"dw1.ne.bf1.ff.tank1",
         "ToBusGNodeAlias":"dw1.ne.bf1.ff.tank1.tank2",
         "DisplayName":"Tank2",
         "GNodeStatusValue":"Active",
         "PrimaryComponentId":"a97c271b-4421-4e8d-ad0a-6683a90d4fb9",
         "PrimaryGNodeRoleAlias":"Ctn"
      },
      {
         "GNodeId":"6a2b9549-2977-4b1d-b6d3-efc84aea17d9",
         "Alias":"dw1.ne.bf1.ff.tank1.tank2.b1",
         "ElectricallyConnectsAndDisconnects":false,
         "FromBusGNodeAlias":"dw1.ne.bf1.ff.tank1.tank2",
         "ToBusGNodeAlias":"dw1.ne.bf1.ff.tank1.tank2.b1.ta",
         "DisplayName":"Tank 2 Blower 1",
         "GNodeStatusValue":"Active",
         "PrimaryComponentId":"e44a7c68-aaf5-4b6c-9c71-7fdacf9626f1",
         "PrimaryGNodeRoleAlias":"AtomicTNode"
      },
      {
         "GNodeId":"84916d74-a575-4bcc-bb5d-5af7645d72bc",
         "Alias":"dw1.ne.bf1.ff.tank1.tank2.b1.ta",
         "ElectricallyConnectsAndDisconnects":true,
         "FromBusGNodeAlias":"dw1.ne.bf1.ff.tank1.tank2.b1",
         "ToBusGNodeAlias":"dw1.ground",
         "DisplayName":"Tank 2 Blower 1",
         "GNodeStatusValue":"Active",
         "PrimaryComponentId":"090eee49-5485-417d-bd10-12641df6835f",
         "PrimaryGNodeRoleAlias":"TerminalAsset"
      },
      {
         "GNodeId":"ff036879-c559-4ddf-9213-289a0186ad9f",
         "Alias":"dw1.ne.bf1.ff.tank1.tank2.b2",
         "ElectricallyConnectsAndDisconnects":false,
         "FromBusGNodeAlias":"dw1.ne.bf1.ff.tank1.tank2",
         "ToBusGNodeAlias":"dw1.ne.bf1.ff.tank1.tank2.b2.ta",
         "DisplayName":"Tank 2 Blower 2",
         "GNodeStatusValue":"Active",
         "PrimaryComponentId":"13c4c358-c99d-4720-9ef5-207bce981476",
         "PrimaryGNodeRoleAlias":"AtomicTNode"
      },
      {
         "GNodeId":"5c55100d-1724-4466-ac41-443d397597fb",
         "Alias":"dw1.ne.bf1.ff.tank1.tank2.b2.ta",
         "ElectricallyConnectsAndDisconnects":true,
         "FromBusGNodeAlias":"dw1.ne.bf1.ff.tank1.tank2.b2",
         "ToBusGNodeAlias":"dw1.ground",
         "DisplayName":"Tank 2 Blower 2",
         "GNodeStatusValue":"Active",
         "PrimaryComponentId":"87093c82-4e69-460a-99d7-3e9c3270b742",
         "PrimaryGNodeRoleAlias":"TerminalAsset"
      },
      {
         "GNodeId":"f7937b56-b9d4-4ec4-8f66-f36283769263",
         "Alias":"dw1.ne.bf1.ff.tank1.tank2.b3",
         "ElectricallyConnectsAndDisconnects":false,
         "FromBusGNodeAlias":"dw1.ne.bf1.ff.tank1.tank2",
         "ToBusGNodeAlias":"dw1.ne.bf1.ff.tank1.tank2.b3.ta",
         "DisplayName":"Tank 2 Blower 3",
         "GNodeStatusValue":"Active",
         "PrimaryComponentId":"d91dd053-fc42-4f6e-b8d5-11e90990e98d",
         "PrimaryGNodeRoleAlias":"AtomicTNode"
      },
      {
         "GNodeId":"37732613-9bdd-4ef9-8154-086c0370da14",
         "Alias":"dw1.ne.bf1.ff.tank1.tank2.b3.ta",
         "ElectricallyConnectsAndDisconnects":true,
         "FromBusGNodeAlias":"dw1.ne.bf1.ff.tank1.tank2.b3",
         "ToBusGNodeAlias":"dw1.ground",
         "DisplayName":"Tank 2 Blower 3",
         "GNodeStatusValue":"Active",
         "PrimaryComponentId":"28e838d1-476d-4be9-a765-db7e9eafb795",
         "PrimaryGNodeRoleAlias":"TerminalAsset"
      },
      {
         "GNodeId":"9395949b-3e3f-4213-9d19-7349a2773535",
         "Alias":"dw1.ne.bf1.ff.tank1.tank2.b4",
         "ElectricallyConnectsAndDisconnects":false,
         "FromBusGNodeAlias":"dw1.ne.bf1.ff.tank1.tank2",
         "ToBusGNodeAlias":"dw1.ne.bf1.ff.tank1.tank2.b4.ta",
         "DisplayName":"Tank 2 Blower 4",
         "GNodeStatusValue":"Active",
         "PrimaryComponentId":"bf92627b-f810-4080-b562-8d87eb2daa27",
         "PrimaryGNodeRoleAlias":"AtomicTNode"
      },
      {
         "GNodeId":"6bea068b-cee2-42e5-9f39-994cb8976657",
         "Alias":"dw1.ne.bf1.ff.tank1.tank2.b4.ta",
         "ElectricallyConnectsAndDisconnects":true,
         "FromBusGNodeAlias":"dw1.ne.bf1.ff.tank1.tank2.b4",
         "ToBusGNodeAlias":"dw1.ground",
         "DisplayName":"Tank 2 Blower 4",
         "GNodeStatusValue":"Active",
         "PrimaryComponentId":"88b0e935-f4ba-4124-95ca-f4047541cb6a",
         "PrimaryGNodeRoleAlias":"TerminalAsset"
      },
      {
         "GNodeId":"adc7cb51-2364-4fd8-b621-59eac99a3ad0",
         "Alias":"dw1.ne.bf1.ff.tank1.tank2.p1",
         "ElectricallyConnectsAndDisconnects":false,
         "FromBusGNodeAlias":"dw1.ne.bf1.ff.tank1.tank2",
         "ToBusGNodeAlias":"dw1.ne.bf1.ff.tank1.tank2.p1.ta",
         "DisplayName":"Tank 2 Pump 1",
         "GNodeStatusValue":"Active",
         "PrimaryComponentId":"17f36373-2126-48b1-8967-8612c40adc29",
         "PrimaryGNodeRoleAlias":"AtomicTNode"
      },
      {
         "GNodeId":"a814f83c-2262-403c-9516-5d5c8e4c7d9e",
         "Alias":"dw1.ne.bf1.ff.tank1.tank2.p1.ta",
         "ElectricallyConnectsAndDisconnects":true,
         "FromBusGNodeAlias":"dw1.ne.bf1.ff.tank1.tank2.p1",
         "ToBusGNodeAlias":"dw1.ground",
         "DisplayName":"Tank 2 Pump 1",
         "GNodeStatusValue":"Active",
         "PrimaryComponentId":"7ca43836-9676-418e-9dcb-2c08de0863ac",
         "PrimaryGNodeRoleAlias":"TerminalAsset"
      },
      {
         "GNodeId":"deea4ac7-8350-4840-bb41-e1bdc0c86656",
         "Alias":"dw1.ne.bf1.ff.tank1.tank2.p2",
         "ElectricallyConnectsAndDisconnects":false,
         "FromBusGNodeAlias":"dw1.ne.bf1.ff.tank1.tank2",
         "ToBusGNodeAlias":"dw1.ne.bf1.ff.tank1.tank2.p2.ta",
         "DisplayName":"Tank 2 Pump 2",
         "GNodeStatusValue":"Active",
         "PrimaryComponentId":"fe3461a7-8ca1-45a2-9928-372686cb5686",
         "PrimaryGNodeRoleAlias":"AtomicTNode"
      },
      {
         "GNodeId":"0115fff1-cd5a-4fea-9888-cb033d1dbc61",
         "Alias":"dw1.ne.bf1.ff.tank1.tank2.p2.ta",
         "ElectricallyConnectsAndDisconnects":true,
         "FromBusGNodeAlias":"dw1.ne.bf1.ff.tank1.tank2.p2",
         "ToBusGNodeAlias":"dw1.ground",
         "DisplayName":"Tank 2 Pump 2",
         "GNodeStatusValue":"Active",
         "PrimaryComponentId":"1fd57898-e145-48bb-8299-695fdb30cc5a",
         "PrimaryGNodeRoleAlias":"TerminalAsset"
      },
      {
         "GNodeId":"acff19aa-df30-490c-9ef8-f5cb71023d3c",
         "Alias":"dw1.ne.cncrd",
         "ElectricallyConnectsAndDisconnects":false,
         "DisplayName":"Concord Storage Heaters",
         "GNodeStatusValue":"Active",
         "PrimaryGNodeRoleAlias":"GridRoot"
      },
      {
         "GNodeId":"dd1f49fe-4f27-4696-9739-c19433bab007",
         "Alias":"dw1.ne.cncrd.daisy",
         "ElectricallyConnectsAndDisconnects":false,
         "ToBusGNodeAlias":"dw1.ne.cncrd.daisy",
         "DisplayName":"Daisy Home Circuit Breaker",
         "GNodeStatusValue":"Active",
         "PrimaryGNodeRoleAlias":"Ctn"
      },
      {
         "GNodeId":"19287022-ffb4-434a-a349-720d1351b6bb",
         "Alias":"dw1.ne.cncrd.daisy.1",
         "ElectricallyConnectsAndDisconnects":false,
         "FromBusGNodeAlias":"dw1.ne.cncrd.daisy",
         "ToBusGNodeAlias":"dw1.ne.cncrd.daisy.1.ta",
         "DisplayName":"Daisy ETS Furnace",
         "GNodeStatusValue":"Active",
         "PrimaryComponentId":"253eb8dd-ffcc-433a-ad55-97eb73c69cdf",
         "PrimaryGNodeRoleAlias":"AtomicTNode"
      },
      {
         "GNodeId":"537d5b8d-ef3d-4bba-bab7-633ffad9be52",
         "Alias":"dw1.ne.cncrd.daisy.1.ta",
         "ElectricallyConnectsAndDisconnects":true,
         "FromBusGNodeAlias":"dw1.ne.cncrd.daisy.1",
         "ToBusGNodeAlias":"dw1.ground",
         "DisplayName":"Daisy ETS Furnace",
         "GNodeStatusValue":"Active",
         "PrimaryComponentId":"7e51d9ce-d998-4275-aab4-870d96feed2a",
         "PrimaryGNodeRoleAlias":"TerminalAsset"
      },
      {
         "GNodeId":"14f2faee-e1a5-468e-8cb3-ac440997dd86",
         "Alias":"dw1.ne.cncrd.daisy.2",
         "ElectricallyConnectsAndDisconnects":false,
         "FromBusGNodeAlias":"dw1.ne.cncrd.daisy",
         "ToBusGNodeAlias":"dw1.ne.cncrd.daisy.2.ta",
         "DisplayName":"Daisy ETS room heater",
         "GNodeStatusValue":"Active",
         "PrimaryComponentId":"c79ed32a-5efa-49d2-860d-c7abc715d2c2",
         "PrimaryGNodeRoleAlias":"AtomicTNode"
      },
      {
         "GNodeId":"f88a2cb7-b506-4c20-940d-ca7e71bc8bed",
         "Alias":"dw1.ne.cncrd.daisy.2.ta",
         "ElectricallyConnectsAndDisconnects":true,
         "FromBusGNodeAlias":"dw1.ne.cncrd.daisy.2",
         "ToBusGNodeAlias":"dw1.ground",
         "DisplayName":"Daisy ETS room heater",
         "GNodeStatusValue":"Active",
         "PrimaryComponentId":"0f1ff1d7-85f0-4504-9780-d9ca53e14ff2",
         "PrimaryGNodeRoleAlias":"TerminalAsset"
      },
      {
         "GNodeId":"633bf3bb-2e24-4588-948d-b236eca20c28",
         "Alias":"dw1.ne.cncrd.elm",
         "ElectricallyConnectsAndDisconnects":false,
         "ToBusGNodeAlias":"dw1.ne.cncrd.elm",
         "DisplayName":"Elm Home Circuit Breaker",
         "GNodeStatusValue":"Active",
         "PrimaryGNodeRoleAlias":"Ctn"
      },
      {
         "GNodeId":"558e3090-8b9e-4ba1-b388-8d31a5437ab7",
         "Alias":"dw1.ne.cncrd.elm.1",
         "ElectricallyConnectsAndDisconnects":false,
         "FromBusGNodeAlias":"dw1.ne.cncrd.elm",
         "ToBusGNodeAlias":"dw1.ne.cncrd.elm.1.ta",
         "DisplayName":"Elm ETS Furnace",
         "GNodeStatusValue":"Active",
         "PrimaryComponentId":"2015fd4f-27f5-423d-896c-7b437c3060a2",
         "PrimaryGNodeRoleAlias":"AtomicTNode"
      },
      {
         "GNodeId":"5541762a-9696-4dd6-9709-0310bfcff123",
         "Alias":"dw1.ne.cncrd.elm.1.ta",
         "ElectricallyConnectsAndDisconnects":true,
         "FromBusGNodeAlias":"dw1.ne.cncrd.elm.1",
         "ToBusGNodeAlias":"dw1.ground",
         "DisplayName":"Elm ETS Furnace",
         "GNodeStatusValue":"Active",
         "PrimaryComponentId":"d06e0431-3373-4065-a35d-db5f47bc14e3",
         "PrimaryGNodeRoleAlias":"TerminalAsset"
      },
      {
         "GNodeId":"3693180d-5214-4076-94a8-49e1427bc386",
         "Alias":"dw1.ne.cncrd.rose",
         "ElectricallyConnectsAndDisconnects":false,
         "ToBusGNodeAlias":"dw1.ne.cncrd.rose",
         "DisplayName":"Rose Home Circuit Breaker",
         "GNodeStatusValue":"Active",
         "PrimaryGNodeRoleAlias":"Ctn"
      },
      {
         "GNodeId":"f1f001fa-3123-4cd6-8089-d27643c82e48",
         "Alias":"dw1.ne.cncrd.rose.1",
         "ElectricallyConnectsAndDisconnects":false,
         "FromBusGNodeAlias":"dw1.ne.cncrd.rose",
         "ToBusGNodeAlias":"dw1.ne.cncrd.rose.1.ta",
         "DisplayName":"Rose ETS Furnace",
         "GNodeStatusValue":"Active",
         "PrimaryComponentId":"b33b8e18-605a-4697-83cc-963ab2dde82d",
         "PrimaryGNodeRoleAlias":"AtomicTNode"
      },
      {
         "GNodeId":"849671a3-bf6d-4dbe-93ea-80d3001ff515",
         "Alias":"dw1.ne.cncrd.rose.1.ta",
         "ElectricallyConnectsAndDisconnects":true,
         "FromBusGNodeAlias":"dw1.ne.cncrd.rose.1",
         "ToBusGNodeAlias":"dw1.ground",
         "DisplayName":"Rose ETS Furnace",
         "GNodeStatusValue":"Active",
         "PrimaryComponentId":"78ea1d5c-b0bd-41ea-bd61-5a88b124e9cb",
         "PrimaryGNodeRoleAlias":"TerminalAsset"
      },
      {
         "GNodeId":"405ee728-5c4d-4323-8058-58a81f51205f",
         "Alias":"dw1.ne.contract-coord",
         "ElectricallyConnectsAndDisconnects":false,
         "DisplayName":"ISONE Contract Coordinator",
         "GNodeStatusValue":"Active",
         "PrimaryGNodeRoleAlias":"ContractCoordinator"
      },
      {
         "GNodeId":"ce137962-8f7a-442d-b887-a1e834c5c7d9",
         "Alias":"dw1.super1",
         "ElectricallyConnectsAndDisconnects":false,
         "DisplayName":"First DW1 Supervisor",
         "GNodeStatusValue":"Active",
         "PrimaryGNodeRoleAlias":"Supervisor"
      },
      {
         "GNodeId":"76417302-2772-41f1-94ef-4d40e9955f63",
         "Alias":"dw1.super2",
         "ElectricallyConnectsAndDisconnects":false,
         "DisplayName":"Second DW1 Supervisor",
         "GNodeStatusValue":"Active",
         "PrimaryGNodeRoleAlias":"Supervisor"
      },
      {
         "GNodeId":"4aff472e-e3e0-45ff-ab0d-ef33bdac4fb4",
         "Alias":"dw1.super3",
         "ElectricallyConnectsAndDisconnects":false,
         "DisplayName":"Third DW1 Supervisor",
         "GNodeStatusValue":"Active",
         "PrimaryGNodeRoleAlias":"Supervisor"
      },
      {
         "GNodeId":"c57f1d64-d1d6-4d8a-83c0-4d4101a4332c",
         "Alias":"dw1.tc",
         "ElectricallyConnectsAndDisconnects":false,
         "DisplayName":"Dev World 1 Global Time Coordinator",
         "GNodeStatusValue":"Active",
         "PrimaryGNodeRoleAlias":"TimeCoordinator"
      }
   ],
   "WorldInstances":[
      {
         "WorldInstanceId":"dw1__1",
         "WorldRootGNodeAlias":"dw1",
         "StartTimeUnixS":1405609140,
         "IsSimulated":true,
         "AtomicFrequencyHz":60,
         "WorldCoordinatorSupervisorContainerId":"6ce07fa2-bd2c-44d1-b3dc-6c962ec98cc3",
         "Idx":1,
         "StartingGridRunClassAlias":"DEVTEST.MinViable.SimpleDc.V0_1"
      }
   ],
   "GridRunClasses":[
      {
         "GridRunClassId":"c1d7c296-df1b-4b26-8ec8-2443b0c6c0d9",
         "Alias":"DEVTEST.MinViable.SimpleDc.V0_1",
         "RootNodeGNodeAlias":"dw1.ne.bf1.ff",
         "NetworkModelerGNodeAlias":"dw1.ne.bf1.ff.nm",
         "GrcStatusValue":"Available"
      },
      {
         "GridRunClassId":"186a9993-c66f-4e44-9f93-d7f0de0efcab",
         "Alias":"DEVTEST.Ta.Load.SimpleDc.V0_1",
         "RootNodeGNodeAlias":"dw1.ne.bf1.ff",
         "NetworkModelerGNodeAlias":"dw1.ne.bf1.ff.nm",
         "GrcStatusValue":"Available"
      },
      {
         "GridRunClassId":"0f19519f-a345-4958-a9e7-c2bf00cc5267",
         "Alias":"DEVTEST.Ta.SolarDial.SimpleDc.V0_1",
         "RootNodeGNodeAlias":"dw1.ne.bf1.ff",
         "NetworkModelerGNodeAlias":"dw1.ne.bf1.ff.nm",
         "GrcStatusValue":"Available"
      },
      {
         "GridRunClassId":"6c2e808b-630a-4f1c-a713-3f9c58658a8c",
         "Alias":"DEVTEST.TwoSupers.V0_1",
         "RootNodeGNodeAlias":"dw1.ne.bf1.ff",
         "NetworkModelerGNodeAlias":"dw1.ne.bf1.ff.nm",
         "GrcStatusValue":"Available"
      }
   ],
   "GrcGNodes":[
      {
         "GrcGNodeId":"cef9d985-e09c-467e-a6fa-22dbd64cf0b8",
         "HasAgent":true,
         "GNodeAlias":"dw1",
         "GridRunClassId":"c1d7c296-df1b-4b26-8ec8-2443b0c6c0d9",
         "GNodeStrategyAlias":"Wc.Mvp.V0.1"
      },
      {
         "GrcGNodeId":"eedbc9cc-38ef-4a17-bc0d-dd77476aec5d",
         "HasAgent":false,
         "GNodeAlias":"dw1.ne",
         "GridRunClassId":"c1d7c296-df1b-4b26-8ec8-2443b0c6c0d9"
      },
      {
         "GrcGNodeId":"b072ea24-3ddf-4f7a-b090-64d62441127a",
         "HasAgent":false,
         "GNodeAlias":"dw1.ne.bf1",
         "GridRunClassId":"c1d7c296-df1b-4b26-8ec8-2443b0c6c0d9"
      },
      {
         "GrcGNodeId":"645db314-2996-4893-8afa-83f6fd31cb90",
         "HasAgent":true,
         "GNodeAlias":"dw1.ne.bf1.ff",
         "GridRunClassId":"c1d7c296-df1b-4b26-8ec8-2443b0c6c0d9",
         "GNodeStrategyAlias":"Microgrid.SimpleDc.V0_1"
      },
      {
         "GrcGNodeId":"be12f49c-7deb-4687-b357-ad7f798af0d0",
         "HasAgent":false,
         "GNodeAlias":"dw1.ne.bf1.ff.bus1",
         "GridRunClassId":"c1d7c296-df1b-4b26-8ec8-2443b0c6c0d9"
      },
      {
         "GrcGNodeId":"c3236dc1-63fe-48f3-b60a-c986190272cc",
         "HasAgent":false,
         "GNodeAlias":"dw1.ne.bf1.ff.bus1.bus2",
         "GridRunClassId":"c1d7c296-df1b-4b26-8ec8-2443b0c6c0d9"
      },
      {
         "GrcGNodeId":"e17921ab-61ca-4cb9-939b-bb46e698ad3f",
         "HasAgent":false,
         "GNodeAlias":"dw1.ne.bf1.ff.bus1.bus2.diesel",
         "GridRunClassId":"c1d7c296-df1b-4b26-8ec8-2443b0c6c0d9"
      },
      {
         "GrcGNodeId":"6a75106d-abdd-484a-8142-7c4e94d4bc54",
         "HasAgent":true,
         "GNodeAlias":"dw1.ne.bf1.ff.bus1.bus2.diesel.ta",
         "GridRunClassId":"c1d7c296-df1b-4b26-8ec8-2443b0c6c0d9",
         "GNodeStrategyAlias":"Ta.Diesel.SimpleDc.V0_1"
      },
      {
         "GrcGNodeId":"ce8dd363-c090-4732-af04-c69b90a32535",
         "HasAgent":true,
         "GNodeAlias":"dw1.ne.bf1.ff.nm",
         "GridRunClassId":"c1d7c296-df1b-4b26-8ec8-2443b0c6c0d9",
         "GNodeStrategyAlias":"NetworkModeler.SimpleDc.V0_2"
      },
      {
         "GrcGNodeId":"40ca2560-4155-4565-8902-b879fccff948",
         "HasAgent":true,
         "GNodeAlias":"dw1.super1",
         "GridRunClassId":"c1d7c296-df1b-4b26-8ec8-2443b0c6c0d9",
         "GNodeStrategyAlias":"Super.Dotnet.V0_1"
      },
      {
         "GrcGNodeId":"3416b8a2-17f4-4fa0-84ba-d4093453917e",
         "HasAgent":true,
         "GNodeAlias":"dw1.tc",
         "GridRunClassId":"c1d7c296-df1b-4b26-8ec8-2443b0c6c0d9",
         "GNodeStrategyAlias":"Tc.Global.V0_1"
      },
      {
         "GrcGNodeId":"aa9222fd-2950-4902-98a8-12ad8ca5cd0b",
         "HasAgent":true,
         "GNodeAlias":"dw1",
         "GridRunClassId":"6c2e808b-630a-4f1c-a713-3f9c58658a8c",
         "GNodeStrategyAlias":"Wc.Mvp.V0.1"
      },
      {
         "GrcGNodeId":"ff2e0afe-aa99-4b66-a96c-587879c1352b",
         "HasAgent":false,
         "GNodeAlias":"dw1.ne",
         "GridRunClassId":"6c2e808b-630a-4f1c-a713-3f9c58658a8c"
      },
      {
         "GrcGNodeId":"30556132-1839-461e-bb0b-1aad3ebffd42",
         "HasAgent":false,
         "GNodeAlias":"dw1.ne.bf1",
         "GridRunClassId":"6c2e808b-630a-4f1c-a713-3f9c58658a8c"
      },
      {
         "GrcGNodeId":"f37b3ad4-249b-4eca-ac06-7156bd68a12f",
         "HasAgent":true,
         "GNodeAlias":"dw1.ne.bf1.ff",
         "GridRunClassId":"6c2e808b-630a-4f1c-a713-3f9c58658a8c",
         "GNodeStrategyAlias":"Microgrid.SimpleDc.V0_1"
      },
      {
         "GrcGNodeId":"84dd1920-7d92-40ce-ac37-751e1666b433",
         "HasAgent":false,
         "GNodeAlias":"dw1.ne.bf1.ff.bus1",
         "GridRunClassId":"6c2e808b-630a-4f1c-a713-3f9c58658a8c"
      },
      {
         "GrcGNodeId":"f0a3be77-c8c3-413d-8b09-eedc9859e89c",
         "HasAgent":false,
         "GNodeAlias":"dw1.ne.bf1.ff.bus1.bus2",
         "GridRunClassId":"6c2e808b-630a-4f1c-a713-3f9c58658a8c"
      },
      {
         "GrcGNodeId":"3bc1a7f6-f45c-42d2-b977-51be8248019b",
         "HasAgent":false,
         "GNodeAlias":"dw1.ne.bf1.ff.bus1.bus2.diesel",
         "GridRunClassId":"6c2e808b-630a-4f1c-a713-3f9c58658a8c"
      },
      {
         "GrcGNodeId":"3c805dd9-6bf2-4a68-a917-605ee6d51389",
         "HasAgent":true,
         "GNodeAlias":"dw1.ne.bf1.ff.bus1.bus2.diesel.ta",
         "GridRunClassId":"6c2e808b-630a-4f1c-a713-3f9c58658a8c",
         "GNodeStrategyAlias":"Ta.Diesel.SimpleDc.V0_1"
      },
      {
         "GrcGNodeId":"72ebad4a-55a0-4a2c-8f47-accba55b6733",
         "HasAgent":false,
         "GNodeAlias":"dw1.ne.bf1.ff.bus1.pv",
         "GridRunClassId":"6c2e808b-630a-4f1c-a713-3f9c58658a8c"
      },
      {
         "GrcGNodeId":"cb2abdab-5cda-4ae9-a28e-e3ad8471dff1",
         "HasAgent":true,
         "GNodeAlias":"dw1.ne.bf1.ff.bus1.pv.ta",
         "GridRunClassId":"6c2e808b-630a-4f1c-a713-3f9c58658a8c",
         "GNodeStrategyAlias":"Ta.SolarDial.SimpleDc.V0_1"
      },
      {
         "GrcGNodeId":"de8d3876-9df5-4efe-b065-be52419faafb",
         "HasAgent":true,
         "GNodeAlias":"dw1.ne.bf1.ff.nm",
         "GridRunClassId":"6c2e808b-630a-4f1c-a713-3f9c58658a8c",
         "GNodeStrategyAlias":"NetworkModeler.SimpleDc.V0_2"
      },
      {
         "GrcGNodeId":"cc8c3432-b906-4af7-a8dc-32389e49eac1",
         "HasAgent":true,
         "GNodeAlias":"dw1.super1",
         "GridRunClassId":"6c2e808b-630a-4f1c-a713-3f9c58658a8c",
         "GNodeStrategyAlias":"Super.Dotnet.V0_1"
      },
      {
         "GrcGNodeId":"f2305e67-96c3-4d73-a9a6-d155f7797706",
         "HasAgent":true,
         "GNodeAlias":"dw1.super2",
         "GridRunClassId":"6c2e808b-630a-4f1c-a713-3f9c58658a8c",
         "GNodeStrategyAlias":"Super.Scala.V0_1"
      },
      {
         "GrcGNodeId":"3d9be652-78aa-4e8b-be78-01feee31ffac",
         "HasAgent":true,
         "GNodeAlias":"dw1.tc",
         "GridRunClassId":"6c2e808b-630a-4f1c-a713-3f9c58658a8c",
         "GNodeStrategyAlias":"Tc.Global.V0_1"
      },
      {
         "GrcGNodeId":"711f9370-1fb7-4b51-a374-bc0817b5e6b0",
         "HasAgent":true,
         "GNodeAlias":"dw1",
         "GridRunClassId":"186a9993-c66f-4e44-9f93-d7f0de0efcab",
         "GNodeStrategyAlias":"Wc.Mvp.V0.1"
      },
      {
         "GrcGNodeId":"197dbd3d-f782-4866-86c1-dd26bf00a00f",
         "HasAgent":false,
         "GNodeAlias":"dw1.ne",
         "GridRunClassId":"186a9993-c66f-4e44-9f93-d7f0de0efcab"
      },
      {
         "GrcGNodeId":"8bb2a749-c9ea-4b11-a92c-3de1f594f823",
         "HasAgent":false,
         "GNodeAlias":"dw1.ne.bf1",
         "GridRunClassId":"186a9993-c66f-4e44-9f93-d7f0de0efcab"
      },
      {
         "GrcGNodeId":"ec3682e4-70aa-4af5-bd5a-8f47c647403e",
         "HasAgent":true,
         "GNodeAlias":"dw1.ne.bf1.ff",
         "GridRunClassId":"186a9993-c66f-4e44-9f93-d7f0de0efcab",
         "GNodeStrategyAlias":"Microgrid.SimpleDc.V0_1"
      },
      {
         "GrcGNodeId":"68e1ec14-d971-481e-86d0-3e0c2360690e",
         "HasAgent":false,
         "GNodeAlias":"dw1.ne.bf1.ff.bus1",
         "GridRunClassId":"186a9993-c66f-4e44-9f93-d7f0de0efcab"
      },
      {
         "GrcGNodeId":"bd22cd6e-9e05-4403-9764-c3c9b4920648",
         "HasAgent":false,
         "GNodeAlias":"dw1.ne.bf1.ff.bus1.bus2",
         "GridRunClassId":"186a9993-c66f-4e44-9f93-d7f0de0efcab"
      },
      {
         "GrcGNodeId":"43fa7a54-ba32-46a9-b331-9cd80486e11e",
         "HasAgent":false,
         "GNodeAlias":"dw1.ne.bf1.ff.bus1.bus2.diesel",
         "GridRunClassId":"186a9993-c66f-4e44-9f93-d7f0de0efcab"
      },
      {
         "GrcGNodeId":"45e11a8c-3354-4183-8a86-695efb348884",
         "HasAgent":true,
         "GNodeAlias":"dw1.ne.bf1.ff.bus1.bus2.diesel.ta",
         "GridRunClassId":"186a9993-c66f-4e44-9f93-d7f0de0efcab",
         "GNodeStrategyAlias":"Ta.Diesel.SimpleDc.V0_1"
      },
      {
         "GrcGNodeId":"1f41bcba-07ac-4411-bddc-e75a86122c0b",
         "HasAgent":true,
         "GNodeAlias":"dw1.ne.bf1.ff.nm",
         "GridRunClassId":"186a9993-c66f-4e44-9f93-d7f0de0efcab",
         "GNodeStrategyAlias":"NetworkModeler.SimpleDc.V0_2"
      },
      {
         "GrcGNodeId":"0eeee676-c55a-4cc6-a9ca-b593bc3e4471",
         "HasAgent":false,
         "GNodeAlias":"dw1.ne.bf1.ff.tank1",
         "GridRunClassId":"186a9993-c66f-4e44-9f93-d7f0de0efcab"
      },
      {
         "GrcGNodeId":"fabb9075-9f57-4d36-842d-80fa296d2591",
         "HasAgent":false,
         "GNodeAlias":"dw1.ne.bf1.ff.tank1.bigpump",
         "GridRunClassId":"186a9993-c66f-4e44-9f93-d7f0de0efcab"
      },
      {
         "GrcGNodeId":"4e444298-ca9a-4567-9950-369adcf1f687",
         "HasAgent":true,
         "GNodeAlias":"dw1.ne.bf1.ff.tank1.bigpump.ta",
         "GridRunClassId":"186a9993-c66f-4e44-9f93-d7f0de0efcab",
         "GNodeStrategyAlias":"Ta.Load.SimpleDc.V0_1"
      },
      {
         "GrcGNodeId":"9e60f2f9-6c68-4224-baa2-8c0f424b877e",
         "HasAgent":true,
         "GNodeAlias":"dw1.super1",
         "GridRunClassId":"186a9993-c66f-4e44-9f93-d7f0de0efcab",
         "GNodeStrategyAlias":"Super.Dotnet.V0_1"
      },
      {
         "GrcGNodeId":"8f50d31e-aed6-4efa-96f3-5d90c6cd5bf8",
         "HasAgent":true,
         "GNodeAlias":"dw1.tc",
         "GridRunClassId":"186a9993-c66f-4e44-9f93-d7f0de0efcab",
         "GNodeStrategyAlias":"Tc.Global.V0_1"
      },
      {
         "GrcGNodeId":"715e824c-3ad0-4e37-81ab-daa80f0f6fe3",
         "HasAgent":true,
         "GNodeAlias":"dw1",
         "GridRunClassId":"0f19519f-a345-4958-a9e7-c2bf00cc5267",
         "GNodeStrategyAlias":"Wc.Mvp.V0.1"
      },
      {
         "GrcGNodeId":"4247c8ae-64ef-43bd-9656-3ceda4e4c809",
         "HasAgent":false,
         "GNodeAlias":"dw1.ne",
         "GridRunClassId":"0f19519f-a345-4958-a9e7-c2bf00cc5267"
      },
      {
         "GrcGNodeId":"f0f3bacc-e590-4867-89e6-8bd4d3ccf4ca",
         "HasAgent":false,
         "GNodeAlias":"dw1.ne.bf1",
         "GridRunClassId":"0f19519f-a345-4958-a9e7-c2bf00cc5267"
      },
      {
         "GrcGNodeId":"7632b217-d36a-43b8-a46a-45fe959bcfb0",
         "HasAgent":true,
         "GNodeAlias":"dw1.ne.bf1.ff",
         "GridRunClassId":"0f19519f-a345-4958-a9e7-c2bf00cc5267",
         "GNodeStrategyAlias":"Microgrid.SimpleDc.V0_1"
      },
      {
         "GrcGNodeId":"3849e511-72e2-4015-9ade-489f51c0db27",
         "HasAgent":false,
         "GNodeAlias":"dw1.ne.bf1.ff.bus1",
         "GridRunClassId":"0f19519f-a345-4958-a9e7-c2bf00cc5267"
      },
      {
         "GrcGNodeId":"6534c2fa-23b7-4e39-af12-26f5f1cb17a1",
         "HasAgent":false,
         "GNodeAlias":"dw1.ne.bf1.ff.bus1.bus2",
         "GridRunClassId":"0f19519f-a345-4958-a9e7-c2bf00cc5267"
      },
      {
         "GrcGNodeId":"1ed37683-5504-4b00-bb72-9501bc98d167",
         "HasAgent":false,
         "GNodeAlias":"dw1.ne.bf1.ff.bus1.bus2.diesel",
         "GridRunClassId":"0f19519f-a345-4958-a9e7-c2bf00cc5267"
      },
      {
         "GrcGNodeId":"af15621a-6c85-4014-9c39-79443a00da75",
         "HasAgent":true,
         "GNodeAlias":"dw1.ne.bf1.ff.bus1.bus2.diesel.ta",
         "GridRunClassId":"0f19519f-a345-4958-a9e7-c2bf00cc5267",
         "GNodeStrategyAlias":"Ta.Diesel.SimpleDc.V0_1"
      },
      {
         "GrcGNodeId":"f8ecdb72-f9c2-4ea3-9f8e-2a90fe90247a",
         "HasAgent":false,
         "GNodeAlias":"dw1.ne.bf1.ff.bus1.pv",
         "GridRunClassId":"0f19519f-a345-4958-a9e7-c2bf00cc5267"
      },
      {
         "GrcGNodeId":"9823e387-b7fe-4b4f-974f-916bfd838bb1",
         "HasAgent":true,
         "GNodeAlias":"dw1.ne.bf1.ff.bus1.pv.ta",
         "GridRunClassId":"0f19519f-a345-4958-a9e7-c2bf00cc5267",
         "GNodeStrategyAlias":"Ta.SolarDial.SimpleDc.V0_1"
      },
      {
         "GrcGNodeId":"5d81aa56-98ef-4402-b93a-abf510d372e2",
         "HasAgent":true,
         "GNodeAlias":"dw1.ne.bf1.ff.nm",
         "GridRunClassId":"0f19519f-a345-4958-a9e7-c2bf00cc5267",
         "GNodeStrategyAlias":"NetworkModeler.SimpleDc.V0_2"
      },
      {
         "GrcGNodeId":"450fe57d-976a-48fb-8d11-db96b7166800",
         "HasAgent":true,
         "GNodeAlias":"dw1.super1",
         "GridRunClassId":"0f19519f-a345-4958-a9e7-c2bf00cc5267",
         "GNodeStrategyAlias":"Super.Dotnet.V0_1"
      },
      {
         "GrcGNodeId":"5bd6fd7e-6ba0-44d3-b3a9-1365f4549e96",
         "HasAgent":true,
         "GNodeAlias":"dw1.tc",
         "GridRunClassId":"0f19519f-a345-4958-a9e7-c2bf00cc5267",
         "GNodeStrategyAlias":"Tc.Global.V0_1"
      }
   ],
   "SupervisorContainers":[
      {
         "SupervisorContainerId":"e871d4d6-8e89-451a-972a-3c4a301446e7",
         "GitRepoUrl":"https://bitbucket.org/electricityworks/gw-platform-dotnet/src",
         "GitShortCommit":"d8eb775",
         "FirstDockerNameComponent":"jessmillar",
         "WorldInstanceAlias":"dw1__1",
         "SupervisorGNodeInstanceId":"6d9eab28-e533-4b29-8f74-fd73923a4000",
         "SecondDockerNameComponent":"dotnet-super",
         "DockerImageCreatedTimeUnixS":1588006300,
         "StatusValue":"Pending"
      }
   ],
   "GNodeInstances":[
      {
         "GNodeInstanceId":"6d9eab28-e533-4b29-8f74-fd73923a4000",
         "GrcGNodeId":"40ca2560-4155-4565-8902-b879fccff948",
         "SupervisorContainerId":"e871d4d6-8e89-451a-972a-3c4a301446e7",
         "GniStatusValue":"Pending"
      },
      {
         "GNodeInstanceId":"660484a9-fc25-4be3-a0c2-850bd44319ad",
         "GrcGNodeId":"cef9d985-e09c-467e-a6fa-22dbd64cf0b8",
         "SupervisorContainerId":"e871d4d6-8e89-451a-972a-3c4a301446e7",
         "GniStatusValue":"Pending"
      },
      {
         "GNodeInstanceId":"3c28576d-ec76-4419-996b-900ca09b3c14",
         "GrcGNodeId":"645db314-2996-4893-8afa-83f6fd31cb90",
         "SupervisorContainerId":"e871d4d6-8e89-451a-972a-3c4a301446e7",
         "GniStatusValue":"Pending"
      },
      {
         "GNodeInstanceId":"c138a0a8-93cd-4c8e-853e-7ae7d3d0fea7",
         "GrcGNodeId":"6a75106d-abdd-484a-8142-7c4e94d4bc54",
         "SupervisorContainerId":"e871d4d6-8e89-451a-972a-3c4a301446e7",
         "GniStatusValue":"Pending"
      },
      {
         "GNodeInstanceId":"6b835917-87e1-497c-a4a6-0065faa6543f",
         "GrcGNodeId":"ce8dd363-c090-4732-af04-c69b90a32535",
         "SupervisorContainerId":"e871d4d6-8e89-451a-972a-3c4a301446e7",
         "GniStatusValue":"Pending"
      },
      {
         "GNodeInstanceId":"9960025b-8fda-4f52-bd46-132572fc5721",
         "GrcGNodeId":"40ca2560-4155-4565-8902-b879fccff948",
         "SupervisorContainerId":"e871d4d6-8e89-451a-972a-3c4a301446e7",
         "GniStatusValue":"Pending"
      },
      {
         "GNodeInstanceId":"4892644a-2427-4004-bce8-8b85c4046d9f",
         "GrcGNodeId":"3416b8a2-17f4-4fa0-84ba-d4093453917e",
         "SupervisorContainerId":"e871d4d6-8e89-451a-972a-3c4a301446e7",
         "GniStatusValue":"Pending"
      },
      {
         "GNodeInstanceId":"09a19157-87c6-46ff-8e24-28d354b899a1",
         "GrcGNodeId":"eedbc9cc-38ef-4a17-bc0d-dd77476aec5d",
         "GniStatusValue":"Pending"
      },
      {
         "GNodeInstanceId":"bb25e86e-7302-42f5-b2dd-ab4e27946104",
         "GrcGNodeId":"b072ea24-3ddf-4f7a-b090-64d62441127a",
         "GniStatusValue":"Pending"
      },
      {
         "GNodeInstanceId":"ded31d67-4012-4c4c-a219-59bcedc6b877",
         "GrcGNodeId":"be12f49c-7deb-4687-b357-ad7f798af0d0",
         "GniStatusValue":"Pending"
      },
      {
         "GNodeInstanceId":"f60e76e6-e474-4197-ada2-32fd9f7feabf",
         "GrcGNodeId":"c3236dc1-63fe-48f3-b60a-c986190272cc",
         "GniStatusValue":"Pending"
      },
      {
         "GNodeInstanceId":"9857414b-3172-48b7-81a4-38246715c6ab",
         "GrcGNodeId":"e17921ab-61ca-4cb9-939b-bb46e698ad3f",
         "GniStatusValue":"Pending"
      }
   ]
}