{
    "RoutingKey": "terminalasset.custom.networkmodeler.electricallydisconnect",
    "Payload": {
        "MpAlias": "sim.r.nm.ta.allelectricallydisconnect.1_0_0",
        "WorldInstanceAlias": "dw1__1",
        "WorldInstanceIsReal": false,
        "FromGNodeAlias": "dw1.ne.bf1.ff.nm",
        "FromGNodeInstanceId": "78bd88de-b143-4d40-b123-b87f44bd79ac",

        "AboutGNodeAlias": "dw1.ne.bf1.ff",

        "TsIndex": 12,

        "PayloadId": "771ab457-5218-4cd7-9f75-46abe6b05ad1",
        "Content": "",
        "IsHandled": false
    }
 }