{
   "RoutingKey": "timecoordinator.custom.networkmodeler.newtimesteprequest",
   "Payload": {
      "MpAlias": "sim.r.gn.tc.rnts.dc.1_0_0",
      "WorldInstanceAlias": "dw1__1",
      "WorldInstanceIsReal": false,

      "FromGNodeAlias": "dw1.ne.bf1.ff.bus1",
      "FromGNodeInstanceId": "39fe1ad2-1fa6-48bc-8217-39b77db2bc83",
      "ToGNodeAlias": "dw1.tc",

      "ActivePowerW": 432.5,
      "IsElectricallyConnected": true,
      "TsIndex": 1,

      "ConvergenceReportLogId":"e3cb5a12-a8c7-4020-85b4-0d567602f1ba",
      
      "PayloadId": "ebc18c7f-6676-451a-9d0e-f6ef0fbec19d",
      "Content": "",
      "IsHandled": false
   }
 }