
{
    "RoutingKey": "ctn.custom.networkmodeler.timestepeqestimate",
    "Payload": 
    {
        "MpAlias": "sim.r.nm.ctn.eqest.dcwsource.1_0_0",
        "WorldInstanceAlias": "dw1__1",
        "WorldInstanceIsReal": false,

        "FromGNodeAlias": "dw1.ne.bf1.ff.nm",
        "FromGNodeInstanceId": "40d20fa7-ebec-4650-8c4e-eed258f91d88",
        "AboutGNodeAlias": "dw1.ne.bf1.ff",
        "ToGNodeAlias": "dw1.ne.bf1.ff.nm",

        "EdgeActivePowerW": 1190.5,
        "SourceActivePowerW": 1190.5,
        "IsElectricallyConnected": true,

        "TsIndex": 56,

        "PayloadId": "eaa8f47d-5961-44c2-9190-d7cd61f071ac",
        "Content": "",
        "IsHandled": false
    }
 }
