{
    "RoutingKey": "terminalasset.custom.admin.tasetpointrequest",
    
    "Payload": 
    {
        "MpAlias": "sim.r.ad.ta.stptfrac.1_0_0",
        "WorldInstanceAlias": "dw1__1",
        "WorldInstanceIsReal": false,

        "AboutGNodeAlias": "dw1.ne.bf1.ff.bus1.bus2.diesel.ta",
        "ToGNodeAlias": "dw1.ne.bf1.ff.bus1.bus2.diesel.ta",

        "PowerSetpointFraction": 0.8
    }
}