{
   "WorldInstance":{
      "WorldInstanceId":"dw1__2",
      "WorldRootGNodeAlias":"dw1",
      "StartTimeUnixS":1405609140,
      "IsSimulated":true,
      "AtomicFrequencyHz":60,
      "Idx":2,
      "StartingGridRunClassAlias":"TESTDISTRIBUTED.Transport.MVP.1_0"
   },
   "GridRunClass":{
      "GridRunClassId":"428fffb2-0cf1-4d03-a79e-cd74edf72de0",
      "Alias":"TESTDISTRIBUTED.Transport.MVP.1_0",
      "RootNodeGNodeAlias":"dw1",
      "NetworkModelerGNodeAlias":"dw1.ne.bf1.ff.nm",
      "GrcStatusValue":"Pending"
   },
   "GrcGNode":{
      "GrcGNodeId":"dd971a32-531a-4883-90c3-aad4fbdf22f2",
      "HasAgent":true,
      "GNodeAlias":"dw1.super1",
      "IsOptional":false,
      "GridRunClassId":"428fffb2-0cf1-4d03-a79e-cd74edf72de0",
      "GNodeStrategyAlias":"Super.Python.1_0"
   },
   "GNode":{
      "GNodeId":"ce137962-8f7a-442d-b887-a1e834c5c7d9",
      "Alias":"dw1.super1",
      "ElectricallyConnectsAndDisconnects":false,
      "DisplayName":"First DW1 Supervisor",
      "GNodeStatusValue":"Active",
      "PrimaryGNodeRoleAlias":"Supervisor"
   },
   "AwsInstanceId":"localhost"
}