{
   "WorldInstance":{
      "WorldInstanceId":"dw1__2",
      "WorldRootGNodeAlias":"dw1",
      "StartTimeUnixS":1405609140,
      "IsSimulated":true,
      "AtomicFrequencyHz":60,
      "Idx":2,
      "StartingGridRunClassAlias":"TESTDISTRIBUTED.Transport.MVP.1_0"
   },
   "GridRunClass":{
      "GridRunClassId":"428fffb2-0cf1-4d03-a79e-cd74edf72de0",
      "Alias":"TESTDISTRIBUTED.Transport.MVP.1_0",
      "RootNodeGNodeAlias":"dw1",
      "NetworkModelerGNodeAlias":"dw1.ne.bf1.ff.nm",
      "GrcStatusValue":"Pending"
   },
   "GrcGNode":{
      "GrcGNodeId":"f5225e03-a717-4c9e-bfc0-ad712ddaa0d1",
      "HasAgent":true,
      "GNodeAlias":"dw1.super2",
      "IsOptional":false,
      "GridRunClassId":"428fffb2-0cf1-4d03-a79e-cd74edf72de0",
      "GNodeStrategyAlias":"Super.Python.1_0"
   },
   "GNode":{
      "GNodeId":"76417302-2772-41f1-94ef-4d40e9955f63",
      "Alias":"dw1.super2",
      "ElectricallyConnectsAndDisconnects":false,
      "DisplayName":"Second DW1 Supervisor",
      "GNodeStatusValue":"Active",
      "PrimaryGNodeRoleAlias":"Supervisor"
   },
   "AwsInstanceId":"localhost"
}