{
   "RoutingKey": "gnode.general.atomictnode.atomictnodeetqmeasurement",

   "Payload": {
      "MpAlias": "sim.r.atn.pwrreport.sfh.v0_2",
      "WorldInstanceName": "dw1__2",
      "WorldInstanceIsReal": false,

      "AboutGNodeAlias": "dw1.ne.bf1.ff.bus1.pv.ta",
      "FromGNodeAlias": "dw1.ne.bf1.ff.bus1.pv.ta",

      "ContractAlias": "sim.admin.solarfollowinghack.ta.rev1",
      "ActivePowerW": -3456.8535,

      "TimeStep": {
         "IrlCreatedAtUtc": "2020-01-03T03:24:01.766227Z",
         "AtomicStepsSinceLastTimeStep": 30,
         "WorldInstanceEraId": "cd525b75-6323-4ae7-b198-88bd2e4b35ab",
         "TsIndex": 15,
         "EraIndex": 15,
         "BeginsEra": false,
         "AtomicIndex": 450,
         "TimeUnixMs": 1405609147500,
         "WorldInstanceName": "dw1__2"
      },
      "TsIndex": 15,

      "PayloadId": "3e8a21f8-5619-4dfb-9358-98d2e47ea4ac",
      "Content": "",
      "IsHandled": false
   }
}