{
    "RoutingKey": "terminalasset.general.admin.taelectricalconnectionrequest",
    
    "Payload": 
    {
        "MpAlias": "sim.r.ad.ta.econn.v0_2",
        "WorldInstanceName": "dw1__1",
        "WorldInstanceIsReal": false,

        "AboutGNodeAlias": "dw1.ne.bf1.ff.bus1.bus2.diesel.ta",
        "ToGNodeAlias": "dw1.ne.bf1.ff.bus1.bus2.diesel.ta",

        "ElectricalConnectionRequest": "PleaseElectricallyConnect"
    }
}