{
    "RoutingKey": "terminalasset.general.networkmodeler.electricallydisconnect",
    "Payload": {
        "MpAlias": "sim.r.nm.ta.allelectricallydisconnect.v0_2",
        "WorldInstanceName": "dw1__1",
        "WorldInstanceIsReal": false,

        "AboutGNodeAlias": "dw1.ne.bf1.ff",
        "FromGNodeAlias": "dw1.ne.bf1.ff.nm",
        "TsIndex": 12,

        "PayloadId": "771ab457-5218-4cd7-9f75-46abe6b05ad1",
        "Content": "",
        "IsHandled": false
    }
 }