{
    "RoutingKey": "networkmodeler.general.ctn.timestepeqinput",
    "Payload": {
        "MpAlias": "sim.r.ctn.nm.eqinput.dc.v0_2",
        "WorldInstanceName": "dw1__2",
        "WorldInstanceIsReal": false,

        "AboutGNodeAlias": "dw1.ne.bf1.ff",
        "FromGNodeAlias": "dw1.ne.bf1.ff",

        "ActivePowerW": 0,
        "IsElectricallyConnected": false,
        "TsIndex": 0,

        "PayloadId": "4878ef10-68f5-4709-a925-fbfce9f7eb17",
        "Content": "",
        "IsHandled": false
    }
}