{
   "RoutingKey": "ctn.general.admin.ctnelectricalconnectionrequest",

   "Payload": 
   {
      "MpAlias": "sim.r.ad.ctn.econn.v0_2",
      "WorldInstanceName": "dw1__1",
      "WorldInstanceIsReal": false,

      "AboutGNodeAlias": "dw1.ne.bf1.ff",
      "ToGNodeAlias": "dw1.ne.bf1.ff",

      "ElectricalConnectionRequest": "PleaseElectricallyConnect"
   }
}