{
   "RoutingKey": "gnode.general.timecoordinator.timestep",

   "Payload": {
      "MpAlias": "sim.r.tc.timestep.v0_1",
      "WorldInstanceName": "dw1__1",
      "WorldInstanceIsReal": false,

      "FromGNodeAlias": "dw1.tc",
      "FromGNodeInstanceId": "0902e163-8f5e-4cd1-8d26-15dc04b0772c",
      "TimeStepType": "Tickle",
   "TimeStep": {
      "IrlCreatedAtUtc": "2020-01-10T12:31:33.07853Z",
      "AtomicStepsSinceLastTimeStep": 30,
      "WorldInstanceEraId": "5def5e35-cc68-4fed-8881-384f8581ba3a",
      "TsIndex": 0,
      "EraIndex": 0,
      "BeginsEra": true,
      "AtomicIndex": 0,
      "TimeUnixMs": 1405609140000,
      "WorldInstanceName": "dw1__1"
   },
      "TimeStepBaggageId": "26dac028-c22b-43f0-9a5f-1d94c98241de",
      "PayloadId": "4b451c02-61f7-4896-b2ec-78b8d749b190",
      "Content": "",
      "IsHandled": false
   }
 }
