{
   "WorldInstances":[
      {
         "WorldInstanceId":"sgwps__1",
         "WorldRootGNodeAlias":"sgwps",
         "StartTimeUnixS":1609540299,
         "IsSimulated":false,
         "AtomicFrequencyHz":60,
         "WorldCoordinatorSupervisorContainerId":"766b21e7-5d01-4f3d-bc74-395787e66ddb",
         "Idx":1,
         "StartingGridRunClassAlias":"Registries.1_0"
      }
   ],
   "SupervisorContainers":[
      {
         "SupervisorContainerId":"766b21e7-5d01-4f3d-bc74-395787e66ddb",
         "GitRepoUrl":"https://bitbucket.org/electricityworks/gw-platform-python/src",
         "GitShortCommit":"07057f",
         "FirstDockerNameComponent":"jessmillar",
         "WorldInstanceAlias":"sgwps__1",
         "SupervisorGNodeInstanceId":"",
         "SecondDockerNameComponent":"NA",
         "SupervisorGNodeAlias": "sgwps",
         "DockerImageCreatedTimeUnixS":1609541690,
         "StatusValue":"Available"
      }
   ],
   "GridRunClasses":[
      {
         "GridRunClassId":"3c110577-3937-4058-b963-51ed07bfffc0",
         "Alias":"Registries.1_0",
         "RootNodeGNodeAlias":"sgwps",
         "GrcStatusValue":"Available"
      }
   ],
   "GNodes":[
      {
         "GNodeId":"f5d80a4c-dd6c-424b-9362-5a87e55c7dc4",
         "Alias":"sgwps",
         "ElectricallyConnectsAndDisconnects":false,
         "DisplayName":"Shadow Gridworks Platform Services",
         "GNodeStatusValue":"Active",
         "PrimaryGNodeRoleAlias":"ServiceCoordinator"
      },
      {
         "GNodeId":"1873c977-e8a8-4268-b4b5-895b7e30f9d4",
         "Alias":"sgwps.cr",
         "ElectricallyConnectsAndDisconnects":false,
         "DisplayName":"Shadow Component Registry",
         "GNodeStatusValue":"Active",
         "PrimaryGNodeRoleAlias":"ComponentRegistry"
      },
      {
         "GNodeId":"7f2bafd2-3b2f-457b-956f-b7c76153157e",
         "Alias":"sgwps.gnr",
         "ElectricallyConnectsAndDisconnects":false,
         "DisplayName":"Shadow GNode Registry",
         "GNodeStatusValue":"Active",
         "PrimaryGNodeRoleAlias":"Gnr"
      },
      {
         "GNodeId":"91de55b3-6cb8-4041-b7fd-2a865d039017",
         "Alias":"sgwps.wir",
         "ElectricallyConnectsAndDisconnects":false,
         "DisplayName":"Shadow World Instance Registry",
         "GNodeStatusValue":"Active",
         "PrimaryGNodeRoleAlias":"Wir"
      },
      {
         "GNodeId":"e6fb42f9-a968-4bf3-9b20-1ca1be0f54d4",
         "Alias":"sgwps.hu",
         "ElectricallyConnectsAndDisconnects":false,
         "DisplayName":"Hu",
         "GNodeStatusValue":"Active",
         "PrimaryGNodeRoleAlias":"GNode"
      },
      {
         "GNodeId":"a9c50bcb-c0ea-4d03-a33b-3fee58ffdd29", 
         "Alias":"sgwps.hu.jess",
         "ElectricallyConnectsAndDisconnects":false,
         "DisplayName":"Jess",
         "GNodeStatusValue":"Active",
         "PrimaryGNodeRoleAlias":"GNode"
      },
      {
         "GNodeId":"101a2602-d02b-49dc-813e-87ec145c2947",
         "Alias":"sgwps.hu.jess.conf",
         "ElectricallyConnectsAndDisconnects":false,
         "DisplayName":"Basic Jess Configger",
         "GNodeStatusValue":"Active",
         "PrimaryGNodeRoleAlias":"Configger"
      } 
   ],
   "GrcGNodes":[
      {
         "GrcGNodeId":"f2d4b198-631b-4be2-829f-4276c985c050",
         "HasAgent":false,
         "IsOptional":true,
         "GNodeAlias":"sgwps.hu",
         "GridRunClassId":"3c110577-3937-4058-b963-51ed07bfffc0"
      },
      {
         "GrcGNodeId":"3d169d39-68cf-4a11-ab33-0c0f33aea3f3",
         "HasAgent":false,
         "IsOptional":true,
         "GNodeAlias":"sgwps.hu.jess",
         "GridRunClassId":"3c110577-3937-4058-b963-51ed07bfffc0"
      },
      {
         "GrcGNodeId":"2ca6f871-34f4-4a32-8408-969e26439333",
         "HasAgent":true,
         "IsOptional":true,
         "GNodeAlias":"sgwps.hu.jess.conf",
         "GNodeStrategyAlias":"Conf.Scripter.1_0",
         "GridRunClassId":"3c110577-3937-4058-b963-51ed07bfffc0"
      },
      
      {
         "GrcGNodeId":"eccc95f0-f31f-449f-841c-5091c3e6dceb",
         "HasAgent":false,
         "GNodeAlias":"sgwps",
         "GridRunClassId":"3c110577-3937-4058-b963-51ed07bfffc0"
      },
      {
         "GrcGNodeId":"fa8fbed1-b2bd-40f0-9436-40e8b1ef1424",
         "HasAgent":true,
         "GNodeAlias":"sgwps.cr",
         "GNodeStrategyAlias":"ComponentRegistry.1_0",
         "GridRunClassId":"3c110577-3937-4058-b963-51ed07bfffc0"
      },
      {
         "GrcGNodeId":"17985b0a-9609-4e53-af4d-35f1e340a2bd",
         "HasAgent":true,
         "GNodeAlias":"sgwps.gnr",
         "GNodeStrategyAlias":"Gnr.1_0",
         "GridRunClassId":"3c110577-3937-4058-b963-51ed07bfffc0"
      },
      {
         "GrcGNodeId":"c7d8e14a-e625-4bc2-8a01-9560cc07d40e",
         "HasAgent":true,
         "GNodeAlias":"sgwps.wir",
         "GNodeStrategyAlias":"Wir.1_0",
         "GridRunClassId":"3c110577-3937-4058-b963-51ed07bfffc0"
      }
   ],
   "GNodeInstances":[
      {
         "GNodeInstanceId":"1382fcd4-70be-40e4-b14e-d8d4d9219785",
         "GrcGNodeId":"f2d4b198-631b-4be2-829f-4276c985c050",
         "SupervisorContainerId":"766b21e7-5d01-4f3d-bc74-395787e66ddb",
         "GniStatusValue":"Active"
      },
      {
         "GNodeInstanceId":"3e30b728-d7ce-41b2-bd27-853108158f28",
         "GrcGNodeId":"3d169d39-68cf-4a11-ab33-0c0f33aea3f3",
         "SupervisorContainerId":"766b21e7-5d01-4f3d-bc74-395787e66ddb",
         "GniStatusValue":"Active"
      },
      {
         "GNodeInstanceId":"6f2c6738-89b6-43db-ad33-21d24b225bfe",
         "GrcGNodeId":"2ca6f871-34f4-4a32-8408-969e26439333",
         "SupervisorContainerId":"766b21e7-5d01-4f3d-bc74-395787e66ddb",
         "GniStatusValue":"Active"
      },
      {
         "GNodeInstanceId":"7f8e590a-c284-43ea-9b30-6a3156d3af01",
         "GrcGNodeId":"eccc95f0-f31f-449f-841c-5091c3e6dceb",
         "SupervisorContainerId":"766b21e7-5d01-4f3d-bc74-395787e66ddb",
         "GniStatusValue":"Active"
      },
       {
         "GNodeInstanceId":"4edd3e13-b473-4520-9216-38c8b83332c0",
         "GrcGNodeId":"fa8fbed1-b2bd-40f0-9436-40e8b1ef1424",
         "SupervisorContainerId":"766b21e7-5d01-4f3d-bc74-395787e66ddb",
         "GniStatusValue":"Active"
      },
      {
         "GNodeInstanceId":"021ba9cc-707d-430f-91cb-8f6897d0eac9",
         "GrcGNodeId":"17985b0a-9609-4e53-af4d-35f1e340a2bd",
         "SupervisorContainerId":"766b21e7-5d01-4f3d-bc74-395787e66ddb",
         "GniStatusValue":"Active"
      },
      {
         "GNodeInstanceId":"7b9279f4-fcf8-48be-980c-df1b1227c554",
         "GrcGNodeId":"c7d8e14a-e625-4bc2-8a01-9560cc07d40e",
         "SupervisorContainerId":"766b21e7-5d01-4f3d-bc74-395787e66ddb",
         "GniStatusValue":"Active"
      }
   ]
}